%!PS-Adobe-3.0 EPSF-3.0
%%Creator: jlibeps 0.1, https://sourceforge.net/projects/jlibeps/
%%Title: UMLet Diagram
%%CreationDate: Tue Mar 12 18:57:31 GMT 2013
%%BoundingBox: 0 0 310 440
%%DocumentData: Clean7Bit
%%DocumentProcessColors: Black
%%ColorUsage: Color
%%Origin: 0 0
%%Pages: 1
%%Page: 1 1
%%EndComments

gsave
-0.0 440.0 translate
1.0 setlinewidth
10.0 setmiterlimit
0 setlinejoin
2 setlinecap
[ ] 0 setdash
gsave
newpath
0.0 -0.0 moveto
310.0 -0.0 lineto
310.0 -440.0 lineto
0.0 -440.0 lineto
0.0 -0.0 lineto
closepath
clip
newpath
1.0 1.0 1.0 setrgbcolor
newpath
0.0 -0.0 moveto
310.0 -0.0 lineto
310.0 -440.0 lineto
0.0 -440.0 lineto
0.0 -0.0 lineto
closepath
fill
newpath
1.0 setlinewidth
10.0 setmiterlimit
0 setlinejoin
2 setlinecap
[ ] 0 setdash
0.0 0.0 0.0 setrgbcolor
0.0 0.0 0.0 setrgbcolor
1.0 1.0 1.0 setrgbcolor
newpath
60.0 -130.0 moveto
229.0 -130.0 lineto
229.0 -199.0 lineto
60.0 -199.0 lineto
60.0 -130.0 lineto
closepath
fill
newpath
0.0 0.0 0.0 setrgbcolor
1.0 setlinewidth
10.0 setmiterlimit
0 setlinejoin
2 setlinecap
[ ] 0 setdash
newpath
60.0 -130.0 moveto
229.0 -130.0 lineto
229.0 -199.0 lineto
60.0 -199.0 lineto
60.0 -130.0 lineto
closepath
stroke
newpath
1.0 setlinewidth
10.0 setmiterlimit
0 setlinejoin
2 setlinecap
[ ] 0 setdash
0.0 0.0 0.0 setrgbcolor
newpath
fill
newpath
0.0 0.0 0.0 setrgbcolor
newpath
101.640625 -164.25 moveto
100.06771 -164.25 98.854164 -163.78906 98.0 -162.86719 curveto
97.145836 -161.94531 96.71875 -160.64062 96.71875 -158.95312 curveto
96.71875 -157.26562 97.15365 -155.95573 98.02344 -155.02344 curveto
98.89323 -154.09114 100.11979 -153.625 101.703125 -153.625 curveto
102.609375 -153.625 103.671875 -153.77605 104.890625 -154.07812 curveto
104.890625 -155.42188 lineto
103.50521 -154.9427 102.4375 -154.70312 101.6875 -154.70312 curveto
100.59375 -154.70312 99.74479 -155.07552 99.140625 -155.82031 curveto
98.53646 -156.56511 98.234375 -157.61458 98.234375 -158.96875 curveto
98.234375 -160.25 98.55469 -161.26302 99.19531 -162.00781 curveto
99.83594 -162.75261 100.71354 -163.125 101.828125 -163.125 curveto
102.78646 -163.125 103.8125 -162.83333 104.90625 -162.25 curveto
104.90625 -163.48438 lineto
103.90625 -163.9948 102.81771 -164.25 101.640625 -164.25 curveto
closepath
107.03027 -164.0 moveto
107.03027 -153.20312 lineto
108.37402 -153.20312 lineto
108.37402 -164.0 lineto
107.03027 -164.0 lineto
closepath
111.07715 -164.0 moveto
111.07715 -156.57812 lineto
112.4209 -156.57812 lineto
112.4209 -164.0 lineto
111.07715 -164.0 lineto
closepath
111.07715 -155.23438 moveto
111.07715 -153.875 lineto
112.4209 -153.875 lineto
112.4209 -155.23438 lineto
111.07715 -155.23438 lineto
closepath
120.56152 -163.76562 moveto
119.66569 -164.03645 118.89486 -164.17188 118.24902 -164.17188 curveto
117.15527 -164.17188 116.26465 -163.8073 115.57715 -163.07812 curveto
114.88965 -162.34895 114.5459 -161.40625 114.5459 -160.25 curveto
114.5459 -159.125 114.847984 -158.20312 115.45215 -157.48438 curveto
116.05631 -156.76562 116.83236 -156.40625 117.78027 -156.40625 curveto
118.68652 -156.40625 119.38444 -156.72395 119.87402 -157.35938 curveto
120.36361 -157.9948 120.6084 -158.90105 120.6084 -160.07812 curveto
120.59277 -160.5 lineto
115.9209 -160.5 lineto
116.1084 -162.26042 116.96777 -163.14062 118.49902 -163.14062 curveto
119.06152 -163.14062 119.74902 -162.98958 120.56152 -162.6875 curveto
120.56152 -163.76562 lineto
closepath
115.96777 -159.48438 moveto
119.24902 -159.48438 lineto
119.24902 -158.10938 118.7334 -157.42188 117.70215 -157.42188 curveto
116.6709 -157.42188 116.09277 -158.10938 115.96777 -159.48438 curveto
closepath
122.92383 -164.0 moveto
122.92383 -156.57812 lineto
124.26758 -156.57812 lineto
124.26758 -157.96875 lineto
124.98633 -156.92708 125.86133 -156.40625 126.89258 -156.40625 curveto
127.52799 -156.40625 128.0384 -156.61198 128.42383 -157.02344 curveto
128.80925 -157.43489 129.00195 -157.98438 129.00195 -158.67188 curveto
129.00195 -164.0 lineto
127.6582 -164.0 lineto
127.6582 -159.10938 lineto
127.6582 -158.5573 127.57487 -158.16406 127.4082 -157.92969 curveto
127.24154 -157.69531 126.975914 -157.57812 126.61133 -157.57812 curveto
125.77799 -157.57812 124.99674 -158.11458 124.26758 -159.1875 curveto
124.26758 -164.0 lineto
122.92383 -164.0 lineto
closepath
133.84668 -164.17188 moveto
133.15918 -164.17188 132.62532 -163.97656 132.24512 -163.58594 curveto
131.86491 -163.19531 131.6748 -162.65105 131.6748 -161.95312 curveto
131.6748 -157.59375 lineto
130.7373 -157.59375 lineto
130.7373 -156.57812 lineto
131.6748 -156.57812 lineto
131.6748 -155.23438 lineto
133.01855 -155.09375 lineto
133.01855 -156.57812 lineto
134.95605 -156.57812 lineto
134.95605 -157.59375 lineto
133.01855 -157.59375 lineto
133.01855 -161.70312 lineto
133.01855 -162.67188 133.43523 -163.15625 134.26855 -163.15625 curveto
134.44563 -163.15625 134.66438 -163.125 134.9248 -163.0625 curveto
134.9248 -164.0 lineto
134.50813 -164.11458 134.14876 -164.17188 133.84668 -164.17188 curveto
closepath
141.27832 -164.07812 moveto
141.27832 -153.20312 lineto
142.62207 -153.20312 lineto
142.62207 -157.96875 lineto
143.17415 -156.92708 144.00227 -156.40625 145.10645 -156.40625 curveto
146.00227 -156.40625 146.7054 -156.73177 147.21582 -157.38281 curveto
147.72624 -158.03386 147.98145 -158.92708 147.98145 -160.0625 curveto
147.98145 -161.29167 147.69238 -162.28386 147.11426 -163.03906 curveto
146.53613 -163.79427 145.77312 -164.17188 144.8252 -164.17188 curveto
143.93977 -164.17188 143.2054 -163.83333 142.62207 -163.15625 curveto
142.46582 -164.07812 lineto
141.27832 -164.07812 lineto
closepath
142.62207 -162.23438 moveto
143.31999 -162.84895 143.98145 -163.15625 144.60645 -163.15625 curveto
145.90852 -163.15625 146.55957 -162.17188 146.55957 -160.20312 curveto
146.55957 -158.46355 145.98145 -157.59375 144.8252 -157.59375 curveto
144.0752 -157.59375 143.34082 -158.0 142.62207 -158.8125 curveto
142.62207 -162.23438 lineto
closepath
150.08984 -164.0 moveto
150.08984 -156.57812 lineto
151.4336 -156.57812 lineto
151.4336 -157.96875 lineto
151.97527 -156.92708 152.7513 -156.40625 153.76172 -156.40625 curveto
153.89714 -156.40625 154.04297 -156.42188 154.19922 -156.45312 curveto
154.19922 -157.70312 lineto
153.95964 -157.6302 153.7513 -157.59375 153.57422 -157.59375 curveto
152.73047 -157.59375 152.01692 -158.09895 151.4336 -159.10938 curveto
151.4336 -164.0 lineto
150.08984 -164.0 lineto
closepath
158.72461 -164.17188 moveto
157.66211 -164.17188 156.81575 -163.82031 156.18555 -163.11719 curveto
155.55534 -162.41406 155.24023 -161.46875 155.24023 -160.28125 curveto
155.24023 -159.09375 155.55794 -158.15105 156.19336 -157.45312 curveto
156.82878 -156.7552 157.68816 -156.40625 158.77148 -156.40625 curveto
159.86523 -156.40625 160.72981 -156.7552 161.36523 -157.45312 curveto
162.00066 -158.15105 162.31836 -159.09375 162.31836 -160.28125 curveto
162.31836 -161.48958 161.99805 -162.44011 161.35742 -163.13281 curveto
160.7168 -163.82552 159.83919 -164.17188 158.72461 -164.17188 curveto
closepath
158.74023 -163.15625 moveto
160.16731 -163.15625 160.88086 -162.19792 160.88086 -160.28125 curveto
160.88086 -158.375 160.17773 -157.42188 158.77148 -157.42188 curveto
157.36523 -157.42188 156.66211 -158.375 156.66211 -160.28125 curveto
156.66211 -162.19792 157.35481 -163.15625 158.74023 -163.15625 curveto
closepath
165.27734 -164.0 moveto
163.15234 -156.57812 lineto
164.48047 -156.57812 lineto
166.10547 -162.32812 lineto
167.85547 -156.57812 lineto
169.19922 -156.57812 lineto
170.7461 -162.32812 lineto
172.60547 -156.57812 lineto
173.76172 -156.57812 lineto
171.33984 -164.0 lineto
169.9961 -164.0 lineto
168.41797 -158.25 lineto
166.63672 -164.0 lineto
165.27734 -164.0 lineto
closepath
177.17383 -164.17188 moveto
176.55925 -164.17188 175.81445 -164.02605 174.93945 -163.73438 curveto
174.93945 -162.5 lineto
175.81445 -162.9375 176.58008 -163.15625 177.23633 -163.15625 curveto
177.62175 -163.15625 177.94206 -163.05208 178.19727 -162.84375 curveto
178.45247 -162.63542 178.58008 -162.375 178.58008 -162.0625 curveto
178.58008 -161.60417 178.2207 -161.22395 177.50195 -160.92188 curveto
176.7207 -160.57812 lineto
175.55403 -160.09895 174.9707 -159.40625 174.9707 -158.5 curveto
174.9707 -157.85417 175.19987 -157.34375 175.6582 -156.96875 curveto
176.11653 -156.59375 176.74675 -156.40625 177.54883 -156.40625 curveto
177.9655 -156.40625 178.4759 -156.46355 179.08008 -156.57812 curveto
179.36133 -156.64062 lineto
179.36133 -157.76562 lineto
178.61133 -157.53645 178.01758 -157.42188 177.58008 -157.42188 curveto
176.70508 -157.42188 176.26758 -157.73438 176.26758 -158.35938 curveto
176.26758 -158.76562 176.5957 -159.10938 177.25195 -159.39062 curveto
177.9082 -159.67188 lineto
178.63737 -159.97395 179.1556 -160.29688 179.46289 -160.64062 curveto
179.77019 -160.98438 179.92383 -161.41667 179.92383 -161.9375 curveto
179.92383 -162.58333 179.66602 -163.11719 179.15039 -163.53906 curveto
178.63477 -163.96094 177.9759 -164.17188 177.17383 -164.17188 curveto
closepath
187.7793 -163.76562 moveto
186.88347 -164.03645 186.11263 -164.17188 185.4668 -164.17188 curveto
184.37305 -164.17188 183.48242 -163.8073 182.79492 -163.07812 curveto
182.10742 -162.34895 181.76367 -161.40625 181.76367 -160.25 curveto
181.76367 -159.125 182.06575 -158.20312 182.66992 -157.48438 curveto
183.2741 -156.76562 184.05013 -156.40625 184.99805 -156.40625 curveto
185.9043 -156.40625 186.60222 -156.72395 187.0918 -157.35938 curveto
187.58138 -157.9948 187.82617 -158.90105 187.82617 -160.07812 curveto
187.81055 -160.5 lineto
183.13867 -160.5 lineto
183.32617 -162.26042 184.18555 -163.14062 185.7168 -163.14062 curveto
186.2793 -163.14062 186.9668 -162.98958 187.7793 -162.6875 curveto
187.7793 -163.76562 lineto
closepath
183.18555 -159.48438 moveto
186.4668 -159.48438 lineto
186.4668 -158.10938 185.95117 -157.42188 184.91992 -157.42188 curveto
183.88867 -157.42188 183.31055 -158.10938 183.18555 -159.48438 curveto
closepath
190.1416 -164.0 moveto
190.1416 -156.57812 lineto
191.48535 -156.57812 lineto
191.48535 -157.96875 lineto
192.02702 -156.92708 192.80305 -156.40625 193.81348 -156.40625 curveto
193.9489 -156.40625 194.09473 -156.42188 194.25098 -156.45312 curveto
194.25098 -157.70312 lineto
194.0114 -157.6302 193.80305 -157.59375 193.62598 -157.59375 curveto
192.78223 -157.59375 192.06868 -158.09895 191.48535 -159.10938 curveto
191.48535 -164.0 lineto
190.1416 -164.0 lineto
closepath
fill
newpath
1.0 setlinewidth
10.0 setmiterlimit
0 setlinejoin
2 setlinecap
[ ] 0 setdash
1.0 setlinewidth
10.0 setmiterlimit
0 setlinejoin
2 setlinecap
[ ] 0 setdash
0.0 0.0 0.0 setrgbcolor
0.0 0.0 0.0 setrgbcolor
1.0 1.0 1.0 setrgbcolor
newpath
60.0 -260.0 moveto
229.0 -260.0 lineto
229.0 -319.0 lineto
60.0 -319.0 lineto
60.0 -260.0 lineto
closepath
fill
newpath
0.0 0.0 0.0 setrgbcolor
1.0 setlinewidth
10.0 setmiterlimit
0 setlinejoin
2 setlinecap
[ ] 0 setdash
newpath
60.0 -260.0 moveto
229.0 -260.0 lineto
229.0 -319.0 lineto
60.0 -319.0 lineto
60.0 -260.0 lineto
closepath
stroke
newpath
1.0 setlinewidth
10.0 setmiterlimit
0 setlinejoin
2 setlinecap
[ ] 0 setdash
0.0 0.0 0.0 setrgbcolor
newpath
fill
newpath
0.0 0.0 0.0 setrgbcolor
newpath
85.74219 -294.0 moveto
85.74219 -283.875 lineto
89.10156 -283.875 lineto
90.10156 -283.875 90.91146 -283.98697 91.53125 -284.21094 curveto
92.15104 -284.4349 92.6849 -284.81772 93.13281 -285.35938 curveto
93.85156 -286.20312 94.21094 -287.31772 94.21094 -288.70312 curveto
94.21094 -290.38022 93.765625 -291.68228 92.875 -292.60938 curveto
91.984375 -293.53647 90.73177 -294.0 89.11719 -294.0 curveto
85.74219 -294.0 lineto
closepath
87.16406 -292.92188 moveto
89.00781 -292.92188 lineto
90.32031 -292.92188 91.2526 -292.56772 91.80469 -291.85938 curveto
92.38802 -291.10938 92.67969 -290.10416 92.67969 -288.84375 curveto
92.67969 -287.64584 92.39323 -286.70834 91.82031 -286.03125 curveto
91.46615 -285.6146 91.04427 -285.33072 90.55469 -285.1797 curveto
90.0651 -285.02866 89.33073 -284.95312 88.35156 -284.95312 curveto
87.16406 -284.95312 lineto
87.16406 -292.92188 lineto
closepath
93.86914 -296.51562 moveto
93.86914 -295.45312 lineto
94.49414 -295.72397 94.973305 -295.85938 95.30664 -295.85938 curveto
95.77539 -295.85938 96.08789 -295.73438 96.24414 -295.48438 curveto
96.40039 -295.23438 96.478516 -294.7396 96.478516 -294.0 curveto
96.478516 -286.57812 lineto
97.822266 -286.57812 lineto
97.822266 -294.0 lineto
97.822266 -295.90625 97.02018 -296.85938 95.416016 -296.85938 curveto
94.93685 -296.85938 94.42123 -296.74478 93.86914 -296.51562 curveto
closepath
96.478516 -285.23438 moveto
96.478516 -283.875 lineto
97.822266 -283.875 lineto
97.822266 -285.23438 lineto
96.478516 -285.23438 lineto
closepath
104.34668 -293.0625 moveto
103.54459 -293.8021 102.768555 -294.17188 102.018555 -294.17188 curveto
101.40397 -294.17188 100.893555 -293.97916 100.487305 -293.59375 curveto
100.081055 -293.20834 99.87793 -292.72397 99.87793 -292.14062 curveto
99.87793 -291.32812 100.21908 -290.70312 100.90137 -290.26562 curveto
101.58366 -289.82812 102.56022 -289.60938 103.831055 -289.60938 curveto
104.15918 -289.60938 lineto
104.15918 -288.71875 lineto
104.15918 -287.85416 103.71647 -287.42188 102.831055 -287.42188 curveto
102.112305 -287.42188 101.34147 -287.64062 100.518555 -288.07812 curveto
100.518555 -286.96875 lineto
101.424805 -286.59375 102.273766 -286.40625 103.06543 -286.40625 curveto
103.898766 -286.40625 104.51334 -286.59375 104.90918 -286.96875 curveto
105.305016 -287.34375 105.50293 -287.9271 105.50293 -288.71875 curveto
105.50293 -292.07812 lineto
105.50293 -292.84897 105.737305 -293.23438 106.206055 -293.23438 curveto
106.268555 -293.23438 106.35709 -293.22397 106.47168 -293.20312 curveto
106.56543 -293.95312 lineto
106.26334 -294.09897 105.924805 -294.17188 105.549805 -294.17188 curveto
104.924805 -294.17188 104.523766 -293.8021 104.34668 -293.0625 curveto
closepath
104.15918 -292.32812 moveto
104.15918 -290.40625 lineto
103.706055 -290.39062 lineto
102.96647 -290.39062 102.367516 -290.53125 101.90918 -290.8125 curveto
101.45084 -291.09375 101.22168 -291.46353 101.22168 -291.92188 curveto
101.22168 -292.24478 101.336266 -292.51562 101.56543 -292.73438 curveto
101.79459 -292.95312 102.07584 -293.0625 102.40918 -293.0625 curveto
102.961266 -293.0625 103.54459 -292.81772 104.15918 -292.32812 curveto
closepath
108.25 -294.0 moveto
108.25 -286.57812 lineto
109.59375 -286.57812 lineto
109.59375 -287.96875 lineto
110.3125 -286.9271 111.1875 -286.40625 112.21875 -286.40625 curveto
112.854164 -286.40625 113.364586 -286.61197 113.75 -287.02344 curveto
114.135414 -287.4349 114.328125 -287.98438 114.328125 -288.67188 curveto
114.328125 -294.0 lineto
112.984375 -294.0 lineto
112.984375 -289.10938 lineto
112.984375 -288.55728 112.90104 -288.16406 112.734375 -287.9297 curveto
112.56771 -287.6953 112.302086 -287.57812 111.9375 -287.57812 curveto
111.104164 -287.57812 110.322914 -288.1146 109.59375 -289.1875 curveto
109.59375 -294.0 lineto
108.25 -294.0 lineto
closepath
116.96973 -296.46875 moveto
117.12598 -295.29688 lineto
117.90723 -295.67188 118.67285 -295.85938 119.42285 -295.85938 curveto
120.94369 -295.85938 121.7041 -295.0521 121.7041 -293.4375 curveto
121.7041 -292.26562 lineto
121.2041 -293.30728 120.3916 -293.82812 119.2666 -293.82812 curveto
118.370766 -293.82812 117.66244 -293.50522 117.1416 -292.85938 curveto
116.620766 -292.21353 116.36035 -291.33853 116.36035 -290.23438 curveto
116.36035 -289.10938 116.65723 -288.1901 117.25098 -287.47656 curveto
117.84473 -286.76303 118.61556 -286.40625 119.56348 -286.40625 curveto
120.39681 -286.40625 121.11035 -286.74478 121.7041 -287.42188 curveto
121.7041 -286.57812 lineto
123.06348 -286.57812 lineto
123.06348 -291.96875 lineto
123.06348 -293.1354 123.00358 -293.9974 122.88379 -294.5547 curveto
122.764 -295.11197 122.53744 -295.56772 122.2041 -295.92188 curveto
121.61035 -296.54688 120.69369 -296.85938 119.4541 -296.85938 curveto
118.589516 -296.85938 117.76139 -296.72916 116.96973 -296.46875 curveto
closepath
121.7041 -291.42188 moveto
121.7041 -288.34375 lineto
121.11035 -287.72916 120.464516 -287.42188 119.7666 -287.42188 curveto
119.152016 -287.42188 118.66764 -287.66928 118.31348 -288.16406 curveto
117.95931 -288.65884 117.78223 -289.34375 117.78223 -290.21875 curveto
117.78223 -291.84375 118.35514 -292.65625 119.50098 -292.65625 curveto
120.28223 -292.65625 121.0166 -292.24478 121.7041 -291.42188 curveto
closepath
128.57422 -294.17188 moveto
127.51172 -294.17188 126.66537 -293.8203 126.03516 -293.1172 curveto
125.404945 -292.41406 125.08984 -291.46875 125.08984 -290.28125 curveto
125.08984 -289.09375 125.407555 -288.15103 126.04297 -287.45312 curveto
126.67838 -286.75522 127.53776 -286.40625 128.6211 -286.40625 curveto
129.71484 -286.40625 130.57942 -286.75522 131.21484 -287.45312 curveto
131.85027 -288.15103 132.16797 -289.09375 132.16797 -290.28125 curveto
132.16797 -291.4896 131.84766 -292.4401 131.20703 -293.1328 curveto
130.5664 -293.82553 129.6888 -294.17188 128.57422 -294.17188 curveto
closepath
128.58984 -293.15625 moveto
130.01692 -293.15625 130.73047 -292.1979 130.73047 -290.28125 curveto
130.73047 -288.375 130.02734 -287.42188 128.6211 -287.42188 curveto
127.21484 -287.42188 126.51172 -288.375 126.51172 -290.28125 curveto
126.51172 -292.1979 127.20443 -293.15625 128.58984 -293.15625 curveto
closepath
138.69727 -294.0 moveto
138.69727 -286.57812 lineto
140.04102 -286.57812 lineto
140.04102 -287.96875 lineto
140.69727 -286.9271 141.54102 -286.40625 142.57227 -286.40625 curveto
143.57227 -286.40625 144.24934 -286.9271 144.60352 -287.96875 curveto
145.23894 -286.9271 146.06706 -286.40625 147.08789 -286.40625 curveto
147.74414 -286.40625 148.25456 -286.59897 148.61914 -286.98438 curveto
148.98372 -287.36978 149.16602 -287.90625 149.16602 -288.59375 curveto
149.16602 -294.0 lineto
147.80664 -294.0 lineto
147.80664 -288.8125 lineto
147.80664 -287.96875 147.47331 -287.54688 146.80664 -287.54688 curveto
146.10872 -287.54688 145.37434 -288.03647 144.60352 -289.01562 curveto
144.60352 -294.0 lineto
143.25977 -294.0 lineto
143.25977 -288.8125 lineto
143.25977 -287.95834 142.91602 -287.53125 142.22852 -287.53125 curveto
141.55144 -287.53125 140.82227 -288.02603 140.04102 -289.01562 curveto
140.04102 -294.0 lineto
138.69727 -294.0 lineto
closepath
151.76758 -294.0 moveto
151.76758 -286.57812 lineto
153.11133 -286.57812 lineto
153.11133 -294.0 lineto
151.76758 -294.0 lineto
closepath
151.76758 -285.23438 moveto
151.76758 -283.875 lineto
153.11133 -283.875 lineto
153.11133 -285.23438 lineto
151.76758 -285.23438 lineto
closepath
160.58008 -294.0 moveto
160.58008 -292.60938 lineto
160.0384 -293.65103 159.2155 -294.17188 158.11133 -294.17188 curveto
157.2155 -294.17188 156.51237 -293.84634 156.00195 -293.1953 curveto
155.49153 -292.54428 155.23633 -291.65103 155.23633 -290.51562 curveto
155.23633 -289.28647 155.52539 -288.29428 156.10352 -287.53906 curveto
156.68164 -286.78384 157.44466 -286.40625 158.39258 -286.40625 curveto
159.278 -286.40625 160.00716 -286.74478 160.58008 -287.42188 curveto
160.58008 -283.20312 lineto
161.93945 -283.20312 lineto
161.93945 -294.0 lineto
160.58008 -294.0 lineto
closepath
160.58008 -288.34375 moveto
159.88216 -287.72916 159.2207 -287.42188 158.5957 -287.42188 curveto
157.30403 -287.42188 156.6582 -288.41147 156.6582 -290.39062 curveto
156.6582 -292.11978 157.23633 -292.98438 158.39258 -292.98438 curveto
159.13216 -292.98438 159.86133 -292.57812 160.58008 -291.76562 curveto
160.58008 -288.34375 lineto
closepath
169.3916 -294.0 moveto
169.3916 -292.60938 lineto
168.84993 -293.65103 168.02702 -294.17188 166.92285 -294.17188 curveto
166.02702 -294.17188 165.3239 -293.84634 164.81348 -293.1953 curveto
164.30305 -292.54428 164.04785 -291.65103 164.04785 -290.51562 curveto
164.04785 -289.28647 164.33691 -288.29428 164.91504 -287.53906 curveto
165.49316 -286.78384 166.25618 -286.40625 167.2041 -286.40625 curveto
168.08952 -286.40625 168.81868 -286.74478 169.3916 -287.42188 curveto
169.3916 -283.20312 lineto
170.75098 -283.20312 lineto
170.75098 -294.0 lineto
169.3916 -294.0 lineto
closepath
169.3916 -288.34375 moveto
168.69368 -287.72916 168.03223 -287.42188 167.40723 -287.42188 curveto
166.11555 -287.42188 165.46973 -288.41147 165.46973 -290.39062 curveto
165.46973 -292.11978 166.04785 -292.98438 167.2041 -292.98438 curveto
167.94368 -292.98438 168.67285 -292.57812 169.3916 -291.76562 curveto
169.3916 -288.34375 lineto
closepath
173.4375 -294.0 moveto
173.4375 -283.20312 lineto
174.78125 -283.20312 lineto
174.78125 -294.0 lineto
173.4375 -294.0 lineto
closepath
182.92188 -293.76562 moveto
182.02605 -294.03647 181.2552 -294.17188 180.60938 -294.17188 curveto
179.51562 -294.17188 178.625 -293.80728 177.9375 -293.07812 curveto
177.25 -292.34897 176.90625 -291.40625 176.90625 -290.25 curveto
176.90625 -289.125 177.20833 -288.20312 177.8125 -287.48438 curveto
178.41667 -286.76562 179.1927 -286.40625 180.14062 -286.40625 curveto
181.04688 -286.40625 181.7448 -286.72397 182.23438 -287.35938 curveto
182.72395 -287.99478 182.96875 -288.90103 182.96875 -290.07812 curveto
182.95312 -290.5 lineto
178.28125 -290.5 lineto
178.46875 -292.2604 179.32812 -293.14062 180.85938 -293.14062 curveto
181.42188 -293.14062 182.10938 -292.9896 182.92188 -292.6875 curveto
182.92188 -293.76562 lineto
closepath
178.32812 -289.48438 moveto
181.60938 -289.48438 lineto
181.60938 -288.10938 181.09375 -287.42188 180.0625 -287.42188 curveto
179.03125 -287.42188 178.45312 -288.10938 178.32812 -289.48438 curveto
closepath
186.14355 -294.0 moveto
184.01855 -286.57812 lineto
185.34668 -286.57812 lineto
186.97168 -292.32812 lineto
188.72168 -286.57812 lineto
190.06543 -286.57812 lineto
191.6123 -292.32812 lineto
193.47168 -286.57812 lineto
194.62793 -286.57812 lineto
192.20605 -294.0 lineto
190.8623 -294.0 lineto
189.28418 -288.25 lineto
187.50293 -294.0 lineto
186.14355 -294.0 lineto
closepath
199.89941 -293.0625 moveto
199.09734 -293.8021 198.32129 -294.17188 197.57129 -294.17188 curveto
196.95671 -294.17188 196.44629 -293.97916 196.04004 -293.59375 curveto
195.63379 -293.20834 195.43066 -292.72397 195.43066 -292.14062 curveto
195.43066 -291.32812 195.7718 -290.70312 196.4541 -290.26562 curveto
197.1364 -289.82812 198.11296 -289.60938 199.38379 -289.60938 curveto
199.71191 -289.60938 lineto
199.71191 -288.71875 lineto
199.71191 -287.85416 199.26921 -287.42188 198.38379 -287.42188 curveto
197.66504 -287.42188 196.89421 -287.64062 196.07129 -288.07812 curveto
196.07129 -286.96875 lineto
196.97754 -286.59375 197.82649 -286.40625 198.61816 -286.40625 curveto
199.45149 -286.40625 200.06609 -286.59375 200.46191 -286.96875 curveto
200.85774 -287.34375 201.05566 -287.9271 201.05566 -288.71875 curveto
201.05566 -292.07812 lineto
201.05566 -292.84897 201.29004 -293.23438 201.75879 -293.23438 curveto
201.82129 -293.23438 201.90984 -293.22397 202.02441 -293.20312 curveto
202.11816 -293.95312 lineto
201.81609 -294.09897 201.47754 -294.17188 201.10254 -294.17188 curveto
200.47754 -294.17188 200.07649 -293.8021 199.89941 -293.0625 curveto
closepath
199.71191 -292.32812 moveto
199.71191 -290.40625 lineto
199.25879 -290.39062 lineto
198.51921 -290.39062 197.92024 -290.53125 197.46191 -290.8125 curveto
197.00359 -291.09375 196.77441 -291.46353 196.77441 -291.92188 curveto
196.77441 -292.24478 196.88899 -292.51562 197.11816 -292.73438 curveto
197.34734 -292.95312 197.62859 -293.0625 197.96191 -293.0625 curveto
198.51399 -293.0625 199.09734 -292.81772 199.71191 -292.32812 curveto
closepath
203.80273 -294.0 moveto
203.80273 -286.57812 lineto
205.14648 -286.57812 lineto
205.14648 -287.96875 lineto
205.68816 -286.9271 206.46419 -286.40625 207.47461 -286.40625 curveto
207.61003 -286.40625 207.75586 -286.42188 207.91211 -286.45312 curveto
207.91211 -287.70312 lineto
207.67253 -287.63022 207.46419 -287.59375 207.28711 -287.59375 curveto
206.44336 -287.59375 205.72981 -288.09897 205.14648 -289.10938 curveto
205.14648 -294.0 lineto
203.80273 -294.0 lineto
closepath
214.96875 -293.76562 moveto
214.07292 -294.03647 213.30208 -294.17188 212.65625 -294.17188 curveto
211.5625 -294.17188 210.67188 -293.80728 209.98438 -293.07812 curveto
209.29688 -292.34897 208.95312 -291.40625 208.95312 -290.25 curveto
208.95312 -289.125 209.2552 -288.20312 209.85938 -287.48438 curveto
210.46355 -286.76562 211.23958 -286.40625 212.1875 -286.40625 curveto
213.09375 -286.40625 213.79167 -286.72397 214.28125 -287.35938 curveto
214.77083 -287.99478 215.01562 -288.90103 215.01562 -290.07812 curveto
215.0 -290.5 lineto
210.32812 -290.5 lineto
210.51562 -292.2604 211.375 -293.14062 212.90625 -293.14062 curveto
213.46875 -293.14062 214.15625 -292.9896 214.96875 -292.6875 curveto
214.96875 -293.76562 lineto
closepath
210.375 -289.48438 moveto
213.65625 -289.48438 lineto
213.65625 -288.10938 213.14062 -287.42188 212.10938 -287.42188 curveto
211.07812 -287.42188 210.5 -288.10938 210.375 -289.48438 curveto
closepath
fill
newpath
1.0 setlinewidth
10.0 setmiterlimit
0 setlinejoin
2 setlinecap
[ ] 0 setdash
1.0 setlinewidth
10.0 setmiterlimit
0 setlinejoin
2 setlinecap
[ ] 0 setdash
0.0 0.0 0.0 setrgbcolor
0.0 0.0 0.0 setrgbcolor
1.0 1.0 1.0 setrgbcolor
newpath
60.0 -360.0 moveto
229.0 -360.0 lineto
229.0 -419.0 lineto
60.0 -419.0 lineto
60.0 -360.0 lineto
closepath
fill
newpath
0.0 0.0 0.0 setrgbcolor
1.0 setlinewidth
10.0 setmiterlimit
0 setlinejoin
2 setlinecap
[ ] 0 setdash
newpath
60.0 -360.0 moveto
229.0 -360.0 lineto
229.0 -419.0 lineto
60.0 -419.0 lineto
60.0 -360.0 lineto
closepath
stroke
newpath
1.0 setlinewidth
10.0 setmiterlimit
0 setlinejoin
2 setlinecap
[ ] 0 setdash
0.0 0.0 0.0 setrgbcolor
newpath
fill
newpath
0.0 0.0 0.0 setrgbcolor
newpath
115.3125 -394.0 moveto
115.3125 -383.875 lineto
118.671875 -383.875 lineto
119.671875 -383.875 120.48177 -383.98697 121.10156 -384.21094 curveto
121.72135 -384.4349 122.25521 -384.81772 122.703125 -385.35938 curveto
123.421875 -386.20312 123.78125 -387.31772 123.78125 -388.70312 curveto
123.78125 -390.38022 123.33594 -391.68228 122.44531 -392.60938 curveto
121.55469 -393.53647 120.302086 -394.0 118.6875 -394.0 curveto
115.3125 -394.0 lineto
closepath
116.734375 -392.92188 moveto
118.578125 -392.92188 lineto
119.890625 -392.92188 120.822914 -392.56772 121.375 -391.85938 curveto
121.958336 -391.10938 122.25 -390.10416 122.25 -388.84375 curveto
122.25 -387.64584 121.96354 -386.70834 121.390625 -386.03125 curveto
121.03646 -385.6146 120.614586 -385.33072 120.125 -385.1797 curveto
119.635414 -385.02866 118.90104 -384.95312 117.921875 -384.95312 curveto
116.734375 -384.95312 lineto
116.734375 -392.92188 lineto
closepath
129.6582 -393.0625 moveto
128.85612 -393.8021 128.08008 -394.17188 127.33008 -394.17188 curveto
126.71549 -394.17188 126.20508 -393.97916 125.79883 -393.59375 curveto
125.39258 -393.20834 125.18945 -392.72397 125.18945 -392.14062 curveto
125.18945 -391.32812 125.5306 -390.70312 126.21289 -390.26562 curveto
126.89518 -389.82812 127.87174 -389.60938 129.14258 -389.60938 curveto
129.4707 -389.60938 lineto
129.4707 -388.71875 lineto
129.4707 -387.85416 129.028 -387.42188 128.14258 -387.42188 curveto
127.42383 -387.42188 126.65299 -387.64062 125.83008 -388.07812 curveto
125.83008 -386.96875 lineto
126.73633 -386.59375 127.58529 -386.40625 128.37695 -386.40625 curveto
129.21028 -386.40625 129.82487 -386.59375 130.2207 -386.96875 curveto
130.61653 -387.34375 130.81445 -387.9271 130.81445 -388.71875 curveto
130.81445 -392.07812 lineto
130.81445 -392.84897 131.04883 -393.23438 131.51758 -393.23438 curveto
131.58008 -393.23438 131.66862 -393.22397 131.7832 -393.20312 curveto
131.87695 -393.95312 lineto
131.57487 -394.09897 131.23633 -394.17188 130.86133 -394.17188 curveto
130.23633 -394.17188 129.83528 -393.8021 129.6582 -393.0625 curveto
closepath
129.4707 -392.32812 moveto
129.4707 -390.40625 lineto
129.01758 -390.39062 lineto
128.278 -390.39062 127.67904 -390.53125 127.2207 -390.8125 curveto
126.76237 -391.09375 126.5332 -391.46353 126.5332 -391.92188 curveto
126.5332 -392.24478 126.64779 -392.51562 126.87695 -392.73438 curveto
127.10612 -392.95312 127.38737 -393.0625 127.7207 -393.0625 curveto
128.27278 -393.0625 128.85612 -392.81772 129.4707 -392.32812 curveto
closepath
135.7959 -394.17188 moveto
135.1084 -394.17188 134.57454 -393.97656 134.19434 -393.58594 curveto
133.81413 -393.1953 133.62402 -392.65103 133.62402 -391.95312 curveto
133.62402 -387.59375 lineto
132.68652 -387.59375 lineto
132.68652 -386.57812 lineto
133.62402 -386.57812 lineto
133.62402 -385.23438 lineto
134.96777 -385.09375 lineto
134.96777 -386.57812 lineto
136.90527 -386.57812 lineto
136.90527 -387.59375 lineto
134.96777 -387.59375 lineto
134.96777 -391.70312 lineto
134.96777 -392.67188 135.38445 -393.15625 136.21777 -393.15625 curveto
136.39485 -393.15625 136.6136 -393.125 136.87402 -393.0625 curveto
136.87402 -394.0 lineto
136.45735 -394.1146 136.09798 -394.17188 135.7959 -394.17188 curveto
closepath
142.62598 -393.0625 moveto
141.8239 -393.8021 141.04785 -394.17188 140.29785 -394.17188 curveto
139.68327 -394.17188 139.17285 -393.97916 138.7666 -393.59375 curveto
138.36035 -393.20834 138.15723 -392.72397 138.15723 -392.14062 curveto
138.15723 -391.32812 138.49837 -390.70312 139.18066 -390.26562 curveto
139.86296 -389.82812 140.83952 -389.60938 142.11035 -389.60938 curveto
142.43848 -389.60938 lineto
142.43848 -388.71875 lineto
142.43848 -387.85416 141.99577 -387.42188 141.11035 -387.42188 curveto
140.3916 -387.42188 139.62077 -387.64062 138.79785 -388.07812 curveto
138.79785 -386.96875 lineto
139.7041 -386.59375 140.55305 -386.40625 141.34473 -386.40625 curveto
142.17805 -386.40625 142.79265 -386.59375 143.18848 -386.96875 curveto
143.5843 -387.34375 143.78223 -387.9271 143.78223 -388.71875 curveto
143.78223 -392.07812 lineto
143.78223 -392.84897 144.0166 -393.23438 144.48535 -393.23438 curveto
144.54785 -393.23438 144.6364 -393.22397 144.75098 -393.20312 curveto
144.84473 -393.95312 lineto
144.54265 -394.09897 144.2041 -394.17188 143.8291 -394.17188 curveto
143.2041 -394.17188 142.80305 -393.8021 142.62598 -393.0625 curveto
closepath
142.43848 -392.32812 moveto
142.43848 -390.40625 lineto
141.98535 -390.39062 lineto
141.24577 -390.39062 140.6468 -390.53125 140.18848 -390.8125 curveto
139.73015 -391.09375 139.50098 -391.46353 139.50098 -391.92188 curveto
139.50098 -392.24478 139.61555 -392.51562 139.84473 -392.73438 curveto
140.0739 -392.95312 140.35515 -393.0625 140.68848 -393.0625 curveto
141.24055 -393.0625 141.8239 -392.81772 142.43848 -392.32812 curveto
closepath
146.5293 -394.07812 moveto
146.5293 -383.20312 lineto
147.87305 -383.20312 lineto
147.87305 -387.96875 lineto
148.42513 -386.9271 149.25325 -386.40625 150.35742 -386.40625 curveto
151.25325 -386.40625 151.95638 -386.73178 152.4668 -387.3828 curveto
152.97722 -388.03384 153.23242 -388.9271 153.23242 -390.0625 curveto
153.23242 -391.29166 152.94336 -392.28384 152.36523 -393.03906 curveto
151.78711 -393.79428 151.0241 -394.17188 150.07617 -394.17188 curveto
149.19075 -394.17188 148.45638 -393.83334 147.87305 -393.15625 curveto
147.7168 -394.07812 lineto
146.5293 -394.07812 lineto
closepath
147.87305 -392.23438 moveto
148.57097 -392.84897 149.23242 -393.15625 149.85742 -393.15625 curveto
151.1595 -393.15625 151.81055 -392.17188 151.81055 -390.20312 curveto
151.81055 -388.46353 151.23242 -387.59375 150.07617 -387.59375 curveto
149.32617 -387.59375 148.5918 -388.0 147.87305 -388.8125 curveto
147.87305 -392.23438 lineto
closepath
159.16895 -393.0625 moveto
158.36687 -393.8021 157.59082 -394.17188 156.84082 -394.17188 curveto
156.22624 -394.17188 155.71582 -393.97916 155.30957 -393.59375 curveto
154.90332 -393.20834 154.7002 -392.72397 154.7002 -392.14062 curveto
154.7002 -391.32812 155.04134 -390.70312 155.72363 -390.26562 curveto
156.40593 -389.82812 157.38249 -389.60938 158.65332 -389.60938 curveto
158.98145 -389.60938 lineto
158.98145 -388.71875 lineto
158.98145 -387.85416 158.53874 -387.42188 157.65332 -387.42188 curveto
156.93457 -387.42188 156.16374 -387.64062 155.34082 -388.07812 curveto
155.34082 -386.96875 lineto
156.24707 -386.59375 157.09602 -386.40625 157.8877 -386.40625 curveto
158.72102 -386.40625 159.33562 -386.59375 159.73145 -386.96875 curveto
160.12727 -387.34375 160.3252 -387.9271 160.3252 -388.71875 curveto
160.3252 -392.07812 lineto
160.3252 -392.84897 160.55957 -393.23438 161.02832 -393.23438 curveto
161.09082 -393.23438 161.17937 -393.22397 161.29395 -393.20312 curveto
161.3877 -393.95312 lineto
161.08562 -394.09897 160.74707 -394.17188 160.37207 -394.17188 curveto
159.74707 -394.17188 159.34602 -393.8021 159.16895 -393.0625 curveto
closepath
158.98145 -392.32812 moveto
158.98145 -390.40625 lineto
158.52832 -390.39062 lineto
157.78874 -390.39062 157.18977 -390.53125 156.73145 -390.8125 curveto
156.27312 -391.09375 156.04395 -391.46353 156.04395 -391.92188 curveto
156.04395 -392.24478 156.15852 -392.51562 156.3877 -392.73438 curveto
156.61687 -392.95312 156.89812 -393.0625 157.23145 -393.0625 curveto
157.78352 -393.0625 158.36687 -392.81772 158.98145 -392.32812 curveto
closepath
165.04102 -394.17188 moveto
164.42644 -394.17188 163.68164 -394.02603 162.80664 -393.73438 curveto
162.80664 -392.5 lineto
163.68164 -392.9375 164.44727 -393.15625 165.10352 -393.15625 curveto
165.48894 -393.15625 165.80925 -393.0521 166.06445 -392.84375 curveto
166.31966 -392.6354 166.44727 -392.375 166.44727 -392.0625 curveto
166.44727 -391.60416 166.08789 -391.22397 165.36914 -390.92188 curveto
164.58789 -390.57812 lineto
163.42122 -390.09897 162.83789 -389.40625 162.83789 -388.5 curveto
162.83789 -387.85416 163.06706 -387.34375 163.52539 -386.96875 curveto
163.98372 -386.59375 164.61394 -386.40625 165.41602 -386.40625 curveto
165.83269 -386.40625 166.3431 -386.46353 166.94727 -386.57812 curveto
167.22852 -386.64062 lineto
167.22852 -387.76562 lineto
166.47852 -387.53647 165.88477 -387.42188 165.44727 -387.42188 curveto
164.57227 -387.42188 164.13477 -387.73438 164.13477 -388.35938 curveto
164.13477 -388.76562 164.46289 -389.10938 165.11914 -389.39062 curveto
165.77539 -389.67188 lineto
166.50456 -389.97397 167.02278 -390.29688 167.33008 -390.64062 curveto
167.63737 -390.98438 167.79102 -391.41666 167.79102 -391.9375 curveto
167.79102 -392.58334 167.5332 -393.1172 167.01758 -393.53906 curveto
166.50195 -393.96094 165.8431 -394.17188 165.04102 -394.17188 curveto
closepath
175.64648 -393.76562 moveto
174.75066 -394.03647 173.97981 -394.17188 173.33398 -394.17188 curveto
172.24023 -394.17188 171.34961 -393.80728 170.66211 -393.07812 curveto
169.97461 -392.34897 169.63086 -391.40625 169.63086 -390.25 curveto
169.63086 -389.125 169.93294 -388.20312 170.53711 -387.48438 curveto
171.14128 -386.76562 171.91731 -386.40625 172.86523 -386.40625 curveto
173.77148 -386.40625 174.4694 -386.72397 174.95898 -387.35938 curveto
175.44856 -387.99478 175.69336 -388.90103 175.69336 -390.07812 curveto
175.67773 -390.5 lineto
171.00586 -390.5 lineto
171.19336 -392.2604 172.05273 -393.14062 173.58398 -393.14062 curveto
174.14648 -393.14062 174.83398 -392.9896 175.64648 -392.6875 curveto
175.64648 -393.76562 lineto
closepath
171.05273 -389.48438 moveto
174.33398 -389.48438 lineto
174.33398 -388.10938 173.81836 -387.42188 172.78711 -387.42188 curveto
171.75586 -387.42188 171.17773 -388.10938 171.05273 -389.48438 curveto
closepath
fill
newpath
1.0 setlinewidth
10.0 setmiterlimit
0 setlinejoin
2 setlinecap
[ ] 0 setdash
1.0 setlinewidth
10.0 setmiterlimit
0 setlinejoin
2 setlinecap
[ ] 0 setdash
0.0 0.0 0.0 setrgbcolor
0.0 0.0 0.0 setrgbcolor
1.0 setlinewidth
10.0 setmiterlimit
0 setlinejoin
2 setlinecap
[ ] 0 setdash
newpath
130.0 -360.0 moveto
130.0 -340.0 lineto
stroke
newpath
newpath
130.0 -340.0 moveto
130.0 -320.0 lineto
stroke
newpath
1.0 setlinewidth
10.0 setmiterlimit
0 setlinejoin
2 setlinecap
[ ] 0 setdash
newpath
130.0 -359.0 moveto
124.0 -347.0 lineto
stroke
newpath
newpath
130.0 -359.0 moveto
136.0 -347.0 lineto
stroke
newpath
1.0 setlinewidth
10.0 setmiterlimit
0 setlinejoin
2 setlinecap
[ ] 0 setdash
1.0 setlinewidth
10.0 setmiterlimit
0 setlinejoin
2 setlinecap
[ ] 0 setdash
0.0 0.0 0.0 setrgbcolor
0.0 0.0 0.0 setrgbcolor
1.0 setlinewidth
10.0 setmiterlimit
0 setlinejoin
2 setlinecap
[ ] 0 setdash
newpath
160.0 -320.0 moveto
160.0 -340.0 lineto
stroke
newpath
newpath
160.0 -340.0 moveto
160.0 -360.0 lineto
stroke
newpath
1.0 setlinewidth
10.0 setmiterlimit
0 setlinejoin
2 setlinecap
[ ] 0 setdash
newpath
160.0 -320.0 moveto
166.0 -332.0 lineto
stroke
newpath
newpath
160.0 -320.0 moveto
154.0 -332.0 lineto
stroke
newpath
1.0 setlinewidth
10.0 setmiterlimit
0 setlinejoin
2 setlinecap
[ ] 0 setdash
1.0 setlinewidth
10.0 setmiterlimit
0 setlinejoin
2 setlinecap
[ ] 0 setdash
0.0 0.0 0.0 setrgbcolor
0.0 0.0 0.0 setrgbcolor
1.0 setlinewidth
10.0 setmiterlimit
0 setlinejoin
2 setlinecap
[ ] 0 setdash
newpath
130.0 -260.0 moveto
130.0 -230.0 lineto
stroke
newpath
newpath
130.0 -230.0 moveto
130.0 -200.0 lineto
stroke
newpath
1.0 setlinewidth
10.0 setmiterlimit
0 setlinejoin
2 setlinecap
[ ] 0 setdash
newpath
130.0 -259.0 moveto
124.0 -247.0 lineto
stroke
newpath
newpath
130.0 -259.0 moveto
136.0 -247.0 lineto
stroke
newpath
1.0 setlinewidth
10.0 setmiterlimit
0 setlinejoin
2 setlinecap
[ ] 0 setdash
1.0 setlinewidth
10.0 setmiterlimit
0 setlinejoin
2 setlinecap
[ ] 0 setdash
0.0 0.0 0.0 setrgbcolor
0.0 0.0 0.0 setrgbcolor
1.0 setlinewidth
10.0 setmiterlimit
0 setlinejoin
2 setlinecap
[ ] 0 setdash
newpath
160.0 -200.0 moveto
160.0 -230.0 lineto
stroke
newpath
newpath
160.0 -230.0 moveto
160.0 -260.0 lineto
stroke
newpath
1.0 setlinewidth
10.0 setmiterlimit
0 setlinejoin
2 setlinecap
[ ] 0 setdash
newpath
160.0 -200.0 moveto
166.0 -212.0 lineto
stroke
newpath
newpath
160.0 -200.0 moveto
154.0 -212.0 lineto
stroke
newpath
1.0 setlinewidth
10.0 setmiterlimit
0 setlinejoin
2 setlinecap
[ ] 0 setdash
1.0 setlinewidth
10.0 setmiterlimit
0 setlinejoin
2 setlinecap
[ ] 0 setdash
0.0 0.0 0.0 setrgbcolor
0.0 0.0 0.0 setrgbcolor
newpath
126.21875 -107.875 moveto
127.65625 -107.875 lineto
127.65625 -114.265625 lineto
127.65625 -115.28646 127.84375 -116.02604 128.21875 -116.484375 curveto
128.59375 -116.94271 129.1927 -117.171875 130.01562 -117.171875 curveto
130.8177 -117.171875 131.38542 -116.95573 131.71875 -116.52344 curveto
132.05208 -116.09115 132.21875 -115.354164 132.21875 -114.3125 curveto
132.21875 -107.875 lineto
133.48438 -107.875 lineto
133.48438 -114.296875 lineto
133.48438 -115.671875 133.20052 -116.67448 132.63281 -117.30469 curveto
132.06511 -117.9349 131.16145 -118.25 129.92188 -118.25 curveto
128.66145 -118.25 127.729164 -117.92448 127.125 -117.27344 curveto
126.520836 -116.6224 126.21875 -115.614586 126.21875 -114.25 curveto
126.21875 -107.875 lineto
closepath
138.0127 -118.171875 moveto
137.39812 -118.171875 136.65332 -118.02604 135.77832 -117.734375 curveto
135.77832 -116.5 lineto
136.65332 -116.9375 137.41895 -117.15625 138.0752 -117.15625 curveto
138.46062 -117.15625 138.78093 -117.052086 139.03613 -116.84375 curveto
139.29134 -116.635414 139.41895 -116.375 139.41895 -116.0625 curveto
139.41895 -115.604164 139.05957 -115.22396 138.34082 -114.921875 curveto
137.55957 -114.578125 lineto
136.3929 -114.09896 135.80957 -113.40625 135.80957 -112.5 curveto
135.80957 -111.854164 136.03874 -111.34375 136.49707 -110.96875 curveto
136.9554 -110.59375 137.58562 -110.40625 138.3877 -110.40625 curveto
138.80437 -110.40625 139.31477 -110.46354 139.91895 -110.578125 curveto
140.2002 -110.640625 lineto
140.2002 -111.765625 lineto
139.4502 -111.53646 138.85645 -111.421875 138.41895 -111.421875 curveto
137.54395 -111.421875 137.10645 -111.734375 137.10645 -112.359375 curveto
137.10645 -112.765625 137.43457 -113.109375 138.09082 -113.390625 curveto
138.74707 -113.671875 lineto
139.47624 -113.97396 139.99446 -114.296875 140.30176 -114.640625 curveto
140.60905 -114.984375 140.7627 -115.416664 140.7627 -115.9375 curveto
140.7627 -116.583336 140.50488 -117.11719 139.98926 -117.53906 curveto
139.47363 -117.96094 138.81477 -118.171875 138.0127 -118.171875 curveto
closepath
148.61816 -117.765625 moveto
147.72234 -118.03646 146.95149 -118.171875 146.30566 -118.171875 curveto
145.21191 -118.171875 144.32129 -117.80729 143.63379 -117.078125 curveto
142.94629 -116.34896 142.60254 -115.40625 142.60254 -114.25 curveto
142.60254 -113.125 142.90462 -112.203125 143.50879 -111.484375 curveto
144.11296 -110.765625 144.88899 -110.40625 145.83691 -110.40625 curveto
146.74316 -110.40625 147.44109 -110.72396 147.93066 -111.359375 curveto
148.42024 -111.99479 148.66504 -112.90104 148.66504 -114.078125 curveto
148.64941 -114.5 lineto
143.97754 -114.5 lineto
144.16504 -116.260414 145.02441 -117.140625 146.55566 -117.140625 curveto
147.11816 -117.140625 147.80566 -116.989586 148.61816 -116.6875 curveto
148.61816 -117.765625 lineto
closepath
144.02441 -113.484375 moveto
147.30566 -113.484375 lineto
147.30566 -112.109375 146.79004 -111.421875 145.75879 -111.421875 curveto
144.72754 -111.421875 144.14941 -112.109375 144.02441 -113.484375 curveto
closepath
150.98047 -118.0 moveto
150.98047 -110.578125 lineto
152.32422 -110.578125 lineto
152.32422 -111.96875 lineto
152.86589 -110.927086 153.64192 -110.40625 154.65234 -110.40625 curveto
154.78777 -110.40625 154.9336 -110.421875 155.08984 -110.453125 curveto
155.08984 -111.703125 lineto
154.85027 -111.63021 154.64192 -111.59375 154.46484 -111.59375 curveto
153.6211 -111.59375 152.90755 -112.09896 152.32422 -113.109375 curveto
152.32422 -118.0 lineto
150.98047 -118.0 lineto
closepath
fill
newpath
1.0 1.0 1.0 setrgbcolor
newpath
147.0 -27.0 moveto
147.0 -30.865993 143.866 -34.0 140.0 -34.0 curveto
136.134 -34.0 133.0 -30.865993 133.0 -27.0 curveto
133.0 -23.134007 136.134 -20.0 140.0 -20.0 curveto
143.866 -20.0 147.0 -23.134007 147.0 -27.0 curveto
closepath
fill
newpath
0.0 0.0 0.0 setrgbcolor
newpath
147.0 -27.0 moveto
147.0 -30.865993 143.866 -34.0 140.0 -34.0 curveto
136.134 -34.0 133.0 -30.865993 133.0 -27.0 curveto
133.0 -23.134007 136.134 -20.0 140.0 -20.0 curveto
143.866 -20.0 147.0 -23.134007 147.0 -27.0 curveto
closepath
stroke
newpath
newpath
140.0 -34.0 moveto
140.0 -55.0 lineto
stroke
newpath
newpath
112.0 -38.0 moveto
168.0 -38.0 lineto
stroke
newpath
newpath
140.0 -55.0 moveto
126.0 -90.0 lineto
stroke
newpath
newpath
140.0 -55.0 moveto
154.0 -90.0 lineto
stroke
newpath
1.0 setlinewidth
10.0 setmiterlimit
0 setlinejoin
2 setlinecap
[ ] 0 setdash
1.0 setlinewidth
10.0 setmiterlimit
0 setlinejoin
2 setlinecap
[ ] 0 setdash
0.0 0.0 0.0 setrgbcolor
0.0 0.0 0.0 setrgbcolor
1.0 setlinewidth
10.0 setmiterlimit
0 setlinejoin
2 setlinecap
[ ] 0 setdash
newpath
110.0 -130.0 moveto
115.0 -115.0 lineto
stroke
newpath
newpath
115.0 -115.0 moveto
120.0 -100.0 lineto
stroke
newpath
1.0 setlinewidth
10.0 setmiterlimit
0 setlinejoin
2 setlinecap
[ ] 0 setdash
newpath
110.0 -129.0 moveto
109.0 -116.0 lineto
stroke
newpath
newpath
110.0 -129.0 moveto
119.0 -120.0 lineto
stroke
newpath
1.0 setlinewidth
10.0 setmiterlimit
0 setlinejoin
2 setlinecap
[ ] 0 setdash
1.0 setlinewidth
10.0 setmiterlimit
0 setlinejoin
2 setlinecap
[ ] 0 setdash
0.0 0.0 0.0 setrgbcolor
0.0 0.0 0.0 setrgbcolor
1.0 setlinewidth
10.0 setmiterlimit
0 setlinejoin
2 setlinecap
[ ] 0 setdash
newpath
160.0 -100.0 moveto
165.0 -115.0 lineto
stroke
newpath
newpath
165.0 -115.0 moveto
170.0 -130.0 lineto
stroke
newpath
1.0 setlinewidth
10.0 setmiterlimit
0 setlinejoin
2 setlinecap
[ ] 0 setdash
newpath
160.0 -100.0 moveto
169.0 -109.0 lineto
stroke
newpath
newpath
160.0 -100.0 moveto
159.0 -113.0 lineto
stroke
newpath
1.0 setlinewidth
10.0 setmiterlimit
0 setlinejoin
2 setlinecap
[ ] 0 setdash
1.0 setlinewidth
10.0 setmiterlimit
0 setlinejoin
2 setlinecap
[ ] 0 setdash
0.0 0.0 0.0 setrgbcolor
0.0 0.0 0.0 setrgbcolor
newpath
fill
newpath
newpath
fill
newpath
newpath
fill
newpath
newpath
172.74219 -218.0 moveto
172.74219 -207.875 lineto
174.16406 -207.875 lineto
174.16406 -212.14062 lineto
178.97656 -212.14062 lineto
178.97656 -207.875 lineto
180.41406 -207.875 lineto
180.41406 -218.0 lineto
178.97656 -218.0 lineto
178.97656 -213.21875 lineto
174.16406 -213.21875 lineto
174.16406 -218.0 lineto
172.74219 -218.0 lineto
closepath
185.43652 -218.0 moveto
185.43652 -208.95312 lineto
181.84277 -208.95312 lineto
181.84277 -207.875 lineto
190.45215 -207.875 lineto
190.45215 -208.95312 lineto
186.8584 -208.95312 lineto
186.8584 -218.0 lineto
185.43652 -218.0 lineto
closepath
191.88281 -218.0 moveto
191.88281 -207.875 lineto
193.86719 -207.875 lineto
196.66406 -215.70312 lineto
199.55469 -207.875 lineto
201.33594 -207.875 lineto
201.33594 -218.0 lineto
199.99219 -218.0 lineto
199.99219 -209.76562 lineto
197.19531 -217.32812 lineto
195.82031 -217.32812 lineto
193.10156 -209.75 lineto
193.10156 -218.0 lineto
191.88281 -218.0 lineto
closepath
203.9414 -218.0 moveto
203.9414 -207.875 lineto
205.36328 -207.875 lineto
205.36328 -216.92188 lineto
209.92578 -216.92188 lineto
209.92578 -218.0 lineto
203.9414 -218.0 lineto
closepath
fill
newpath
newpath
177.07031 -235.25 moveto
175.49739 -235.25 174.28386 -234.78906 173.42969 -233.86719 curveto
172.57552 -232.94531 172.14844 -231.64062 172.14844 -229.95312 curveto
172.14844 -228.26562 172.58333 -226.95573 173.45312 -226.02344 curveto
174.32292 -225.09114 175.54948 -224.625 177.13281 -224.625 curveto
178.03906 -224.625 179.10156 -224.77605 180.32031 -225.07812 curveto
180.32031 -226.42188 lineto
178.93489 -225.9427 177.86719 -225.70312 177.11719 -225.70312 curveto
176.02344 -225.70312 175.17448 -226.07552 174.57031 -226.82031 curveto
173.96614 -227.56511 173.66406 -228.61458 173.66406 -229.96875 curveto
173.66406 -231.25 173.98438 -232.26302 174.625 -233.00781 curveto
175.26562 -233.75261 176.14323 -234.125 177.25781 -234.125 curveto
178.21614 -234.125 179.24219 -233.83333 180.33594 -233.25 curveto
180.33594 -234.48438 lineto
179.33594 -234.9948 178.24739 -235.25 177.07031 -235.25 curveto
closepath
184.39746 -235.25 moveto
183.72038 -235.25 182.85579 -235.10417 181.80371 -234.8125 curveto
181.80371 -233.39062 lineto
182.93913 -233.91145 183.87663 -234.17188 184.61621 -234.17188 curveto
185.17871 -234.17188 185.63184 -234.02605 185.97559 -233.73438 curveto
186.31934 -233.4427 186.49121 -233.05208 186.49121 -232.5625 curveto
186.49121 -232.16667 186.37923 -231.83073 186.15527 -231.55469 curveto
185.93132 -231.27864 185.51204 -230.96875 184.89746 -230.625 curveto
184.20996 -230.21875 lineto
183.34538 -229.72917 182.73601 -229.26562 182.38184 -228.82812 curveto
182.02766 -228.39062 181.85059 -227.88542 181.85059 -227.3125 curveto
181.85059 -226.53125 182.13445 -225.88802 182.70215 -225.38281 curveto
183.26985 -224.87761 183.99121 -224.625 184.86621 -224.625 curveto
185.64746 -224.625 186.47038 -224.7552 187.33496 -225.01562 curveto
187.33496 -226.32812 lineto
186.26204 -225.91145 185.46516 -225.70312 184.94434 -225.70312 curveto
184.44434 -225.70312 184.03288 -225.83594 183.70996 -226.10156 curveto
183.38704 -226.36719 183.22559 -226.69792 183.22559 -227.09375 curveto
183.22559 -227.4375 183.34538 -227.73698 183.58496 -227.99219 curveto
183.82454 -228.24739 184.25684 -228.5573 184.88184 -228.92188 curveto
185.60059 -229.32812 lineto
186.47559 -229.82812 187.08757 -230.29948 187.43652 -230.74219 curveto
187.78548 -231.18489 187.95996 -231.71355 187.95996 -232.32812 curveto
187.95996 -233.21355 187.63445 -233.92188 186.9834 -234.45312 curveto
186.33235 -234.98438 185.47038 -235.25 184.39746 -235.25 curveto
closepath
191.9375 -235.25 moveto
191.26042 -235.25 190.39583 -235.10417 189.34375 -234.8125 curveto
189.34375 -233.39062 lineto
190.47917 -233.91145 191.41667 -234.17188 192.15625 -234.17188 curveto
192.71875 -234.17188 193.17188 -234.02605 193.51562 -233.73438 curveto
193.85938 -233.4427 194.03125 -233.05208 194.03125 -232.5625 curveto
194.03125 -232.16667 193.91927 -231.83073 193.69531 -231.55469 curveto
193.47136 -231.27864 193.05208 -230.96875 192.4375 -230.625 curveto
191.75 -230.21875 lineto
190.88542 -229.72917 190.27605 -229.26562 189.92188 -228.82812 curveto
189.5677 -228.39062 189.39062 -227.88542 189.39062 -227.3125 curveto
189.39062 -226.53125 189.67448 -225.88802 190.24219 -225.38281 curveto
190.80989 -224.87761 191.53125 -224.625 192.40625 -224.625 curveto
193.1875 -224.625 194.01042 -224.7552 194.875 -225.01562 curveto
194.875 -226.32812 lineto
193.80208 -225.91145 193.0052 -225.70312 192.48438 -225.70312 curveto
191.98438 -225.70312 191.57292 -225.83594 191.25 -226.10156 curveto
190.92708 -226.36719 190.76562 -226.69792 190.76562 -227.09375 curveto
190.76562 -227.4375 190.88542 -227.73698 191.125 -227.99219 curveto
191.36458 -228.24739 191.79688 -228.5573 192.42188 -228.92188 curveto
193.14062 -229.32812 lineto
194.01562 -229.82812 194.62761 -230.29948 194.97656 -230.74219 curveto
195.32552 -231.18489 195.5 -231.71355 195.5 -232.32812 curveto
195.5 -233.21355 195.17448 -233.92188 194.52344 -234.45312 curveto
193.87239 -234.98438 193.01042 -235.25 191.9375 -235.25 curveto
closepath
fill
newpath
newpath
170.16406 -253.875 moveto
170.16406 -252.60938 lineto
170.71614 -252.78645 171.20052 -252.875 171.61719 -252.875 curveto
172.16927 -252.875 172.55208 -252.71875 172.76562 -252.40625 curveto
172.97917 -252.09375 173.08594 -251.54688 173.08594 -250.76562 curveto
173.08594 -241.875 lineto
174.52344 -241.875 lineto
174.52344 -250.71875 lineto
174.52344 -252.92708 173.48177 -254.03125 171.39844 -254.03125 curveto
171.08594 -254.03125 170.67448 -253.97917 170.16406 -253.875 curveto
closepath
180.95605 -251.0625 moveto
180.15398 -251.80208 179.37793 -252.17188 178.62793 -252.17188 curveto
178.01335 -252.17188 177.50293 -251.97917 177.09668 -251.59375 curveto
176.69043 -251.20833 176.4873 -250.72395 176.4873 -250.14062 curveto
176.4873 -249.32812 176.82845 -248.70312 177.51074 -248.26562 curveto
178.19304 -247.82812 179.1696 -247.60938 180.44043 -247.60938 curveto
180.76855 -247.60938 lineto
180.76855 -246.71875 lineto
180.76855 -245.85417 180.32585 -245.42188 179.44043 -245.42188 curveto
178.72168 -245.42188 177.95085 -245.64062 177.12793 -246.07812 curveto
177.12793 -244.96875 lineto
178.03418 -244.59375 178.88313 -244.40625 179.6748 -244.40625 curveto
180.50813 -244.40625 181.12273 -244.59375 181.51855 -244.96875 curveto
181.91438 -245.34375 182.1123 -245.92708 182.1123 -246.71875 curveto
182.1123 -250.07812 lineto
182.1123 -250.84895 182.34668 -251.23438 182.81543 -251.23438 curveto
182.87793 -251.23438 182.96648 -251.22395 183.08105 -251.20312 curveto
183.1748 -251.95312 lineto
182.87273 -252.09895 182.53418 -252.17188 182.15918 -252.17188 curveto
181.53418 -252.17188 181.13313 -251.80208 180.95605 -251.0625 curveto
closepath
180.76855 -250.32812 moveto
180.76855 -248.40625 lineto
180.31543 -248.39062 lineto
179.57585 -248.39062 178.97688 -248.53125 178.51855 -248.8125 curveto
178.06023 -249.09375 177.83105 -249.46355 177.83105 -249.92188 curveto
177.83105 -250.2448 177.94563 -250.51562 178.1748 -250.73438 curveto
178.40398 -250.95312 178.68523 -251.0625 179.01855 -251.0625 curveto
179.57063 -251.0625 180.15398 -250.8177 180.76855 -250.32812 curveto
closepath
186.40625 -252.0 moveto
183.64062 -244.57812 lineto
184.98438 -244.57812 lineto
187.14062 -250.35938 lineto
189.42188 -244.57812 lineto
190.6875 -244.57812 lineto
187.75 -252.0 lineto
186.40625 -252.0 lineto
closepath
195.9336 -251.0625 moveto
195.13152 -251.80208 194.35547 -252.17188 193.60547 -252.17188 curveto
192.99089 -252.17188 192.48047 -251.97917 192.07422 -251.59375 curveto
191.66797 -251.20833 191.46484 -250.72395 191.46484 -250.14062 curveto
191.46484 -249.32812 191.80598 -248.70312 192.48828 -248.26562 curveto
193.17058 -247.82812 194.14714 -247.60938 195.41797 -247.60938 curveto
195.7461 -247.60938 lineto
195.7461 -246.71875 lineto
195.7461 -245.85417 195.30339 -245.42188 194.41797 -245.42188 curveto
193.69922 -245.42188 192.92839 -245.64062 192.10547 -246.07812 curveto
192.10547 -244.96875 lineto
193.01172 -244.59375 193.86067 -244.40625 194.65234 -244.40625 curveto
195.48567 -244.40625 196.10027 -244.59375 196.4961 -244.96875 curveto
196.89192 -245.34375 197.08984 -245.92708 197.08984 -246.71875 curveto
197.08984 -250.07812 lineto
197.08984 -250.84895 197.32422 -251.23438 197.79297 -251.23438 curveto
197.85547 -251.23438 197.94402 -251.22395 198.0586 -251.20312 curveto
198.15234 -251.95312 lineto
197.85027 -252.09895 197.51172 -252.17188 197.13672 -252.17188 curveto
196.51172 -252.17188 196.11067 -251.80208 195.9336 -251.0625 curveto
closepath
195.7461 -250.32812 moveto
195.7461 -248.40625 lineto
195.29297 -248.39062 lineto
194.55339 -248.39062 193.95442 -248.53125 193.4961 -248.8125 curveto
193.03777 -249.09375 192.8086 -249.46355 192.8086 -249.92188 curveto
192.8086 -250.2448 192.92317 -250.51562 193.15234 -250.73438 curveto
193.38152 -250.95312 193.66277 -251.0625 193.9961 -251.0625 curveto
194.54817 -251.0625 195.13152 -250.8177 195.7461 -250.32812 curveto
closepath
201.77441 -252.25 moveto
201.09734 -252.25 200.23274 -252.10417 199.18066 -251.8125 curveto
199.18066 -250.39062 lineto
200.31609 -250.91145 201.25359 -251.17188 201.99316 -251.17188 curveto
202.55566 -251.17188 203.00879 -251.02605 203.35254 -250.73438 curveto
203.69629 -250.4427 203.86816 -250.05208 203.86816 -249.5625 curveto
203.86816 -249.16667 203.75618 -248.83073 203.53223 -248.55469 curveto
203.30827 -248.27864 202.88899 -247.96875 202.27441 -247.625 curveto
201.58691 -247.21875 lineto
200.72234 -246.72917 200.11296 -246.26562 199.75879 -245.82812 curveto
199.40462 -245.39062 199.22754 -244.88542 199.22754 -244.3125 curveto
199.22754 -243.53125 199.5114 -242.88802 200.0791 -242.38281 curveto
200.6468 -241.87761 201.36816 -241.625 202.24316 -241.625 curveto
203.02441 -241.625 203.84734 -241.7552 204.71191 -242.01562 curveto
204.71191 -243.32812 lineto
203.63899 -242.91145 202.84212 -242.70312 202.32129 -242.70312 curveto
201.82129 -242.70312 201.40984 -242.83594 201.08691 -243.10156 curveto
200.76399 -243.36719 200.60254 -243.69792 200.60254 -244.09375 curveto
200.60254 -244.4375 200.72234 -244.73698 200.96191 -244.99219 curveto
201.20149 -245.24739 201.63379 -245.5573 202.25879 -245.92188 curveto
202.97754 -246.32812 lineto
203.85254 -246.82812 204.46452 -247.29948 204.81348 -247.74219 curveto
205.16243 -248.18489 205.33691 -248.71355 205.33691 -249.32812 curveto
205.33691 -250.21355 205.0114 -250.92188 204.36035 -251.45312 curveto
203.7093 -251.98438 202.84734 -252.25 201.77441 -252.25 curveto
closepath
210.2832 -252.17188 moveto
209.27278 -252.17188 208.43945 -251.79948 207.7832 -251.05469 curveto
207.12695 -250.30989 206.79883 -249.375 206.79883 -248.25 curveto
206.79883 -247.04167 207.12434 -246.09895 207.77539 -245.42188 curveto
208.42644 -244.7448 209.3405 -244.40625 210.51758 -244.40625 curveto
211.0905 -244.40625 211.73633 -244.48958 212.45508 -244.65625 curveto
212.45508 -245.78125 lineto
211.69466 -245.55208 211.07487 -245.4375 210.5957 -245.4375 curveto
209.9082 -245.4375 209.35612 -245.69792 208.93945 -246.21875 curveto
208.52278 -246.73958 208.31445 -247.42708 208.31445 -248.28125 curveto
208.31445 -249.11458 208.528 -249.78906 208.95508 -250.30469 curveto
209.38216 -250.82031 209.93945 -251.07812 210.62695 -251.07812 curveto
211.25195 -251.07812 211.88737 -250.92188 212.5332 -250.60938 curveto
212.5332 -251.78125 lineto
211.66862 -252.04167 210.91862 -252.17188 210.2832 -252.17188 curveto
closepath
214.54785 -252.0 moveto
214.54785 -244.57812 lineto
215.8916 -244.57812 lineto
215.8916 -245.96875 lineto
216.43327 -244.92708 217.2093 -244.40625 218.21973 -244.40625 curveto
218.35515 -244.40625 218.50098 -244.42188 218.65723 -244.45312 curveto
218.65723 -245.70312 lineto
218.41765 -245.6302 218.2093 -245.59375 218.03223 -245.59375 curveto
217.18848 -245.59375 216.47493 -246.09895 215.8916 -247.10938 curveto
215.8916 -252.0 lineto
214.54785 -252.0 lineto
closepath
220.27637 -252.0 moveto
220.27637 -244.57812 lineto
221.62012 -244.57812 lineto
221.62012 -252.0 lineto
220.27637 -252.0 lineto
closepath
220.27637 -243.23438 moveto
220.27637 -241.875 lineto
221.62012 -241.875 lineto
221.62012 -243.23438 lineto
220.27637 -243.23438 lineto
closepath
224.32324 -254.70312 moveto
224.32324 -244.57812 lineto
225.66699 -244.57812 lineto
225.66699 -245.96875 lineto
226.21907 -244.92708 227.0472 -244.40625 228.15137 -244.40625 curveto
229.0472 -244.40625 229.75032 -244.73177 230.26074 -245.38281 curveto
230.77116 -246.03386 231.02637 -246.92708 231.02637 -248.0625 curveto
231.02637 -249.29167 230.7373 -250.28386 230.15918 -251.03906 curveto
229.58105 -251.79427 228.81804 -252.17188 227.87012 -252.17188 curveto
226.9847 -252.17188 226.25032 -251.83333 225.66699 -251.15625 curveto
225.66699 -254.70312 lineto
224.32324 -254.70312 lineto
closepath
225.66699 -250.23438 moveto
226.36491 -250.84895 227.02637 -251.15625 227.65137 -251.15625 curveto
228.95345 -251.15625 229.60449 -250.17188 229.60449 -248.20312 curveto
229.60449 -246.46355 229.02637 -245.59375 227.87012 -245.59375 curveto
227.12012 -245.59375 226.38574 -246.0 225.66699 -246.8125 curveto
225.66699 -250.23438 lineto
closepath
235.36914 -252.17188 moveto
234.68164 -252.17188 234.14778 -251.97656 233.76758 -251.58594 curveto
233.38737 -251.19531 233.19727 -250.65105 233.19727 -249.95312 curveto
233.19727 -245.59375 lineto
232.25977 -245.59375 lineto
232.25977 -244.57812 lineto
233.19727 -244.57812 lineto
233.19727 -243.23438 lineto
234.54102 -243.09375 lineto
234.54102 -244.57812 lineto
236.47852 -244.57812 lineto
236.47852 -245.59375 lineto
234.54102 -245.59375 lineto
234.54102 -249.70312 lineto
234.54102 -250.67188 234.95769 -251.15625 235.79102 -251.15625 curveto
235.9681 -251.15625 236.18684 -251.125 236.44727 -251.0625 curveto
236.44727 -252.0 lineto
236.0306 -252.11458 235.67122 -252.17188 235.36914 -252.17188 curveto
closepath
fill
newpath
1.0 setlinewidth
10.0 setmiterlimit
0 setlinejoin
2 setlinecap
[ ] 0 setdash
1.0 setlinewidth
10.0 setmiterlimit
0 setlinejoin
2 setlinecap
[ ] 0 setdash
0.0 0.0 0.0 setrgbcolor
0.0 0.0 0.0 setrgbcolor
newpath
fill
newpath
newpath
fill
newpath
newpath
95.453125 -217.125 moveto
93.71875 -212.76562 lineto
92.0 -217.125 lineto
95.453125 -217.125 lineto
closepath
96.96875 -221.0 moveto
95.859375 -218.20312 lineto
91.578125 -218.20312 lineto
90.46875 -221.0 lineto
89.125 -221.0 lineto
93.140625 -210.875 lineto
94.5625 -210.875 lineto
98.515625 -221.0 lineto
96.96875 -221.0 lineto
closepath
97.40918 -222.875 moveto
97.40918 -221.60938 lineto
97.961266 -221.78645 98.44564 -221.875 98.862305 -221.875 curveto
99.41439 -221.875 99.7972 -221.71875 100.01074 -221.40625 curveto
100.22428 -221.09375 100.331055 -220.54688 100.331055 -219.76562 curveto
100.331055 -210.875 lineto
101.768555 -210.875 lineto
101.768555 -219.71875 lineto
101.768555 -221.92708 100.72689 -223.03125 98.643555 -223.03125 curveto
98.331055 -223.03125 97.91959 -222.97917 97.40918 -222.875 curveto
closepath
109.4668 -217.125 moveto
107.73242 -212.76562 lineto
106.01367 -217.125 lineto
109.4668 -217.125 lineto
closepath
110.98242 -221.0 moveto
109.87305 -218.20312 lineto
105.5918 -218.20312 lineto
104.48242 -221.0 lineto
103.13867 -221.0 lineto
107.1543 -210.875 lineto
108.57617 -210.875 lineto
112.5293 -221.0 lineto
110.98242 -221.0 lineto
closepath
112.79785 -221.0 moveto
116.15723 -215.92188 lineto
112.96973 -210.875 lineto
114.65723 -210.875 lineto
117.09473 -214.70312 lineto
119.6416 -210.875 lineto
121.00098 -210.875 lineto
117.7666 -215.76562 lineto
121.0791 -221.0 lineto
119.3916 -221.0 lineto
116.81348 -216.98438 lineto
114.15723 -221.0 lineto
112.79785 -221.0 lineto
closepath
fill
newpath
newpath
28.3125 -238.0 moveto
28.3125 -227.875 lineto
29.734375 -227.875 lineto
29.734375 -232.14062 lineto
34.546875 -232.14062 lineto
34.546875 -227.875 lineto
35.984375 -227.875 lineto
35.984375 -238.0 lineto
34.546875 -238.0 lineto
34.546875 -233.21875 lineto
29.734375 -233.21875 lineto
29.734375 -238.0 lineto
28.3125 -238.0 lineto
closepath
41.006836 -238.0 moveto
41.006836 -228.95312 lineto
37.413086 -228.95312 lineto
37.413086 -227.875 lineto
46.02246 -227.875 lineto
46.02246 -228.95312 lineto
42.42871 -228.95312 lineto
42.42871 -238.0 lineto
41.006836 -238.0 lineto
closepath
47.453125 -238.0 moveto
47.453125 -227.875 lineto
49.4375 -227.875 lineto
52.234375 -235.70312 lineto
55.125 -227.875 lineto
56.90625 -227.875 lineto
56.90625 -238.0 lineto
55.5625 -238.0 lineto
55.5625 -229.76562 lineto
52.765625 -237.32812 lineto
51.390625 -237.32812 lineto
48.671875 -229.75 lineto
48.671875 -238.0 lineto
47.453125 -238.0 lineto
closepath
59.51172 -238.0 moveto
59.51172 -227.875 lineto
60.933594 -227.875 lineto
60.933594 -236.92188 lineto
65.49609 -236.92188 lineto
65.49609 -238.0 lineto
59.51172 -238.0 lineto
closepath
71.40625 -238.0 moveto
71.40625 -227.875 lineto
74.46875 -227.875 lineto
75.4375 -227.875 76.17969 -228.09114 76.69531 -228.52344 curveto
77.21094 -228.95573 77.46875 -229.57812 77.46875 -230.39062 curveto
77.46875 -231.7448 76.78646 -232.70312 75.421875 -233.26562 curveto
78.796875 -238.0 lineto
77.046875 -238.0 lineto
74.15625 -233.71875 lineto
72.828125 -233.71875 lineto
72.828125 -238.0 lineto
71.40625 -238.0 lineto
closepath
72.828125 -232.64062 moveto
73.28125 -232.64062 lineto
75.09375 -232.64062 76.0 -231.9323 76.0 -230.51562 curveto
76.0 -229.47395 75.239586 -228.95312 73.71875 -228.95312 curveto
72.828125 -228.95312 lineto
72.828125 -232.64062 lineto
closepath
85.72754 -237.76562 moveto
84.8317 -238.03645 84.060875 -238.17188 83.41504 -238.17188 curveto
82.32129 -238.17188 81.430664 -237.8073 80.743164 -237.07812 curveto
80.055664 -236.34895 79.711914 -235.40625 79.711914 -234.25 curveto
79.711914 -233.125 80.014 -232.20312 80.618164 -231.48438 curveto
81.22233 -230.76562 81.998375 -230.40625 82.94629 -230.40625 curveto
83.85254 -230.40625 84.55045 -230.72395 85.04004 -231.35938 curveto
85.529625 -231.9948 85.774414 -232.90105 85.774414 -234.07812 curveto
85.75879 -234.5 lineto
81.086914 -234.5 lineto
81.274414 -236.26042 82.13379 -237.14062 83.66504 -237.14062 curveto
84.22754 -237.14062 84.91504 -236.98958 85.72754 -236.6875 curveto
85.72754 -237.76562 lineto
closepath
81.13379 -233.48438 moveto
84.41504 -233.48438 lineto
84.41504 -232.10938 83.899414 -231.42188 82.868164 -231.42188 curveto
81.836914 -231.42188 81.25879 -232.10938 81.13379 -233.48438 curveto
closepath
92.85547 -240.70312 moveto
92.85547 -236.60938 lineto
92.313805 -237.65105 91.49088 -238.17188 90.38672 -238.17188 curveto
89.49088 -238.17188 88.78776 -237.84636 88.27734 -237.19531 curveto
87.76693 -236.54427 87.51172 -235.65105 87.51172 -234.51562 curveto
87.51172 -233.28645 87.80078 -232.29427 88.37891 -231.53906 curveto
88.95703 -230.78386 89.720055 -230.40625 90.66797 -230.40625 curveto
91.55338 -230.40625 92.282555 -230.7448 92.85547 -231.42188 curveto
92.85547 -230.57812 lineto
94.21484 -230.57812 lineto
94.21484 -240.70312 lineto
92.85547 -240.70312 lineto
closepath
92.85547 -232.34375 moveto
92.157555 -231.72917 91.49609 -231.42188 90.87109 -231.42188 curveto
89.57943 -231.42188 88.93359 -232.41145 88.93359 -234.39062 curveto
88.93359 -236.1198 89.51172 -236.98438 90.66797 -236.98438 curveto
91.407555 -236.98438 92.13672 -236.57812 92.85547 -235.76562 curveto
92.85547 -232.34375 lineto
closepath
101.54199 -238.0 moveto
101.54199 -236.60938 lineto
100.83366 -237.65105 99.96908 -238.17188 98.94824 -238.17188 curveto
98.29199 -238.17188 97.773766 -237.96875 97.393555 -237.5625 curveto
97.01334 -237.15625 96.82324 -236.60417 96.82324 -235.90625 curveto
96.82324 -230.57812 lineto
98.16699 -230.57812 lineto
98.16699 -235.46875 lineto
98.16699 -236.02083 98.24772 -236.41667 98.40918 -236.65625 curveto
98.57064 -236.89583 98.84408 -237.01562 99.22949 -237.01562 curveto
100.04199 -237.01562 100.81283 -236.47395 101.54199 -235.39062 curveto
101.54199 -230.57812 lineto
102.88574 -230.57812 lineto
102.88574 -238.0 lineto
101.54199 -238.0 lineto
closepath
111.02734 -237.76562 moveto
110.13151 -238.03645 109.36068 -238.17188 108.71484 -238.17188 curveto
107.62109 -238.17188 106.73047 -237.8073 106.04297 -237.07812 curveto
105.35547 -236.34895 105.01172 -235.40625 105.01172 -234.25 curveto
105.01172 -233.125 105.313805 -232.20312 105.91797 -231.48438 curveto
106.52213 -230.76562 107.29818 -230.40625 108.24609 -230.40625 curveto
109.15234 -230.40625 109.85026 -230.72395 110.33984 -231.35938 curveto
110.82943 -231.9948 111.07422 -232.90105 111.07422 -234.07812 curveto
111.05859 -234.5 lineto
106.38672 -234.5 lineto
106.57422 -236.26042 107.43359 -237.14062 108.96484 -237.14062 curveto
109.52734 -237.14062 110.21484 -236.98958 111.02734 -236.6875 curveto
111.02734 -237.76562 lineto
closepath
106.43359 -233.48438 moveto
109.71484 -233.48438 lineto
109.71484 -232.10938 109.19922 -231.42188 108.16797 -231.42188 curveto
107.13672 -231.42188 106.55859 -232.10938 106.43359 -233.48438 curveto
closepath
115.3584 -238.17188 moveto
114.74381 -238.17188 113.99902 -238.02605 113.12402 -237.73438 curveto
113.12402 -236.5 lineto
113.99902 -236.9375 114.76465 -237.15625 115.4209 -237.15625 curveto
115.80631 -237.15625 116.126625 -237.05208 116.381836 -236.84375 curveto
116.63705 -236.63542 116.76465 -236.375 116.76465 -236.0625 curveto
116.76465 -235.60417 116.40527 -235.22395 115.68652 -234.92188 curveto
114.90527 -234.57812 lineto
113.73861 -234.09895 113.15527 -233.40625 113.15527 -232.5 curveto
113.15527 -231.85417 113.38444 -231.34375 113.84277 -230.96875 curveto
114.30111 -230.59375 114.93131 -230.40625 115.7334 -230.40625 curveto
116.15006 -230.40625 116.660484 -230.46355 117.26465 -230.57812 curveto
117.5459 -230.64062 lineto
117.5459 -231.76562 lineto
116.7959 -231.53645 116.20215 -231.42188 115.76465 -231.42188 curveto
114.88965 -231.42188 114.45215 -231.73438 114.45215 -232.35938 curveto
114.45215 -232.76562 114.78027 -233.10938 115.43652 -233.39062 curveto
116.09277 -233.67188 lineto
116.82194 -233.97395 117.34017 -234.29688 117.64746 -234.64062 curveto
117.95475 -234.98438 118.1084 -235.41667 118.1084 -235.9375 curveto
118.1084 -236.58333 117.850586 -237.11719 117.33496 -237.53906 curveto
116.819336 -237.96094 116.160484 -238.17188 115.3584 -238.17188 curveto
closepath
122.76074 -238.17188 moveto
122.07324 -238.17188 121.53939 -237.97656 121.15918 -237.58594 curveto
120.77897 -237.19531 120.58887 -236.65105 120.58887 -235.95312 curveto
120.58887 -231.59375 lineto
119.65137 -231.59375 lineto
119.65137 -230.57812 lineto
120.58887 -230.57812 lineto
120.58887 -229.23438 lineto
121.93262 -229.09375 lineto
121.93262 -230.57812 lineto
123.87012 -230.57812 lineto
123.87012 -231.59375 lineto
121.93262 -231.59375 lineto
121.93262 -235.70312 lineto
121.93262 -236.67188 122.34928 -237.15625 123.18262 -237.15625 curveto
123.3597 -237.15625 123.57845 -237.125 123.83887 -237.0625 curveto
123.83887 -238.0 lineto
123.4222 -238.11458 123.06283 -238.17188 122.76074 -238.17188 curveto
closepath
fill
newpath
1.0 setlinewidth
10.0 setmiterlimit
0 setlinejoin
2 setlinecap
[ ] 0 setdash
1.0 setlinewidth
10.0 setmiterlimit
0 setlinejoin
2 setlinecap
[ ] 0 setdash
0.0 0.0 0.0 setrgbcolor
0.0 0.0 0.0 setrgbcolor
newpath
fill
newpath
newpath
fill
newpath
newpath
68.3125 -341.0 moveto
68.3125 -330.875 lineto
71.375 -330.875 lineto
72.34375 -330.875 73.08594 -331.09116 73.60156 -331.52344 curveto
74.11719 -331.95572 74.375 -332.57812 74.375 -333.39062 curveto
74.375 -334.74478 73.69271 -335.70312 72.328125 -336.26562 curveto
75.703125 -341.0 lineto
73.953125 -341.0 lineto
71.0625 -336.71875 lineto
69.734375 -336.71875 lineto
69.734375 -341.0 lineto
68.3125 -341.0 lineto
closepath
69.734375 -335.64062 moveto
70.1875 -335.64062 lineto
72.0 -335.64062 72.90625 -334.93228 72.90625 -333.51562 curveto
72.90625 -332.47397 72.145836 -331.95312 70.625 -331.95312 curveto
69.734375 -331.95312 lineto
69.734375 -335.64062 lineto
closepath
82.63379 -340.76562 moveto
81.73795 -341.03647 80.967125 -341.17188 80.32129 -341.17188 curveto
79.22754 -341.17188 78.336914 -340.80728 77.649414 -340.07812 curveto
76.961914 -339.34897 76.618164 -338.40625 76.618164 -337.25 curveto
76.618164 -336.125 76.92025 -335.20312 77.524414 -334.48438 curveto
78.12858 -333.76562 78.904625 -333.40625 79.85254 -333.40625 curveto
80.75879 -333.40625 81.4567 -333.72397 81.94629 -334.35938 curveto
82.435875 -334.99478 82.680664 -335.90103 82.680664 -337.07812 curveto
82.66504 -337.5 lineto
77.993164 -337.5 lineto
78.180664 -339.2604 79.04004 -340.14062 80.57129 -340.14062 curveto
81.13379 -340.14062 81.82129 -339.9896 82.63379 -339.6875 curveto
82.63379 -340.76562 lineto
closepath
78.04004 -336.48438 moveto
81.32129 -336.48438 lineto
81.32129 -335.10938 80.805664 -334.42188 79.774414 -334.42188 curveto
78.743164 -334.42188 78.16504 -335.10938 78.04004 -336.48438 curveto
closepath
89.76172 -343.70312 moveto
89.76172 -339.60938 lineto
89.220055 -340.65103 88.39713 -341.17188 87.29297 -341.17188 curveto
86.39713 -341.17188 85.69401 -340.84634 85.18359 -340.1953 curveto
84.67318 -339.54428 84.41797 -338.65103 84.41797 -337.51562 curveto
84.41797 -336.28647 84.70703 -335.29428 85.28516 -334.53906 curveto
85.86328 -333.78384 86.626305 -333.40625 87.57422 -333.40625 curveto
88.45963 -333.40625 89.188805 -333.74478 89.76172 -334.42188 curveto
89.76172 -333.57812 lineto
91.12109 -333.57812 lineto
91.12109 -343.70312 lineto
89.76172 -343.70312 lineto
closepath
89.76172 -335.34375 moveto
89.063805 -334.72916 88.40234 -334.42188 87.77734 -334.42188 curveto
86.48568 -334.42188 85.83984 -335.41147 85.83984 -337.39062 curveto
85.83984 -339.11978 86.41797 -339.98438 87.57422 -339.98438 curveto
88.313805 -339.98438 89.04297 -339.57812 89.76172 -338.76562 curveto
89.76172 -335.34375 lineto
closepath
98.44824 -341.0 moveto
98.44824 -339.60938 lineto
97.73991 -340.65103 96.87533 -341.17188 95.85449 -341.17188 curveto
95.19824 -341.17188 94.680016 -340.96875 94.299805 -340.5625 curveto
93.91959 -340.15625 93.72949 -339.60416 93.72949 -338.90625 curveto
93.72949 -333.57812 lineto
95.07324 -333.57812 lineto
95.07324 -338.46875 lineto
95.07324 -339.02084 95.15397 -339.41666 95.31543 -339.65625 curveto
95.47689 -339.89584 95.75033 -340.01562 96.13574 -340.01562 curveto
96.94824 -340.01562 97.71908 -339.47397 98.44824 -338.39062 curveto
98.44824 -333.57812 lineto
99.79199 -333.57812 lineto
99.79199 -341.0 lineto
98.44824 -341.0 lineto
closepath
107.93359 -340.76562 moveto
107.03776 -341.03647 106.26693 -341.17188 105.62109 -341.17188 curveto
104.52734 -341.17188 103.63672 -340.80728 102.94922 -340.07812 curveto
102.26172 -339.34897 101.91797 -338.40625 101.91797 -337.25 curveto
101.91797 -336.125 102.220055 -335.20312 102.82422 -334.48438 curveto
103.42838 -333.76562 104.20443 -333.40625 105.15234 -333.40625 curveto
106.05859 -333.40625 106.75651 -333.72397 107.24609 -334.35938 curveto
107.73568 -334.99478 107.98047 -335.90103 107.98047 -337.07812 curveto
107.96484 -337.5 lineto
103.29297 -337.5 lineto
103.48047 -339.2604 104.33984 -340.14062 105.87109 -340.14062 curveto
106.43359 -340.14062 107.12109 -339.9896 107.93359 -339.6875 curveto
107.93359 -340.76562 lineto
closepath
103.33984 -336.48438 moveto
106.62109 -336.48438 lineto
106.62109 -335.10938 106.10547 -334.42188 105.07422 -334.42188 curveto
104.04297 -334.42188 103.46484 -335.10938 103.33984 -336.48438 curveto
closepath
112.26465 -341.17188 moveto
111.65006 -341.17188 110.90527 -341.02603 110.03027 -340.73438 curveto
110.03027 -339.5 lineto
110.90527 -339.9375 111.6709 -340.15625 112.32715 -340.15625 curveto
112.71256 -340.15625 113.032875 -340.0521 113.288086 -339.84375 curveto
113.5433 -339.6354 113.6709 -339.375 113.6709 -339.0625 curveto
113.6709 -338.60416 113.31152 -338.22397 112.59277 -337.92188 curveto
111.81152 -337.57812 lineto
110.64486 -337.09897 110.06152 -336.40625 110.06152 -335.5 curveto
110.06152 -334.85416 110.29069 -334.34375 110.74902 -333.96875 curveto
111.20736 -333.59375 111.83756 -333.40625 112.63965 -333.40625 curveto
113.05631 -333.40625 113.566734 -333.46353 114.1709 -333.57812 curveto
114.45215 -333.64062 lineto
114.45215 -334.76562 lineto
113.70215 -334.53647 113.1084 -334.42188 112.6709 -334.42188 curveto
111.7959 -334.42188 111.3584 -334.73438 111.3584 -335.35938 curveto
111.3584 -335.76562 111.68652 -336.10938 112.34277 -336.39062 curveto
112.99902 -336.67188 lineto
113.72819 -336.97397 114.24642 -337.29688 114.55371 -337.64062 curveto
114.861 -337.98438 115.01465 -338.41666 115.01465 -338.9375 curveto
115.01465 -339.58334 114.756836 -340.1172 114.24121 -340.53906 curveto
113.725586 -340.96094 113.066734 -341.17188 112.26465 -341.17188 curveto
closepath
119.66699 -341.17188 moveto
118.97949 -341.17188 118.44564 -340.97656 118.06543 -340.58594 curveto
117.68522 -340.1953 117.49512 -339.65103 117.49512 -338.95312 curveto
117.49512 -334.59375 lineto
116.55762 -334.59375 lineto
116.55762 -333.57812 lineto
117.49512 -333.57812 lineto
117.49512 -332.23438 lineto
118.83887 -332.09375 lineto
118.83887 -333.57812 lineto
120.77637 -333.57812 lineto
120.77637 -334.59375 lineto
118.83887 -334.59375 lineto
118.83887 -338.70312 lineto
118.83887 -339.67188 119.25553 -340.15625 120.08887 -340.15625 curveto
120.26595 -340.15625 120.4847 -340.125 120.74512 -340.0625 curveto
120.74512 -341.0 lineto
120.32845 -341.1146 119.96908 -341.17188 119.66699 -341.17188 curveto
closepath
fill
newpath
1.0 setlinewidth
10.0 setmiterlimit
0 setlinejoin
2 setlinecap
[ ] 0 setdash
1.0 setlinewidth
10.0 setmiterlimit
0 setlinejoin
2 setlinecap
[ ] 0 setdash
0.0 0.0 0.0 setrgbcolor
0.0 0.0 0.0 setrgbcolor
newpath
fill
newpath
newpath
fill
newpath
newpath
168.3125 -351.0 moveto
168.3125 -340.875 lineto
171.375 -340.875 lineto
172.34375 -340.875 173.08594 -341.09116 173.60156 -341.52344 curveto
174.11719 -341.95572 174.375 -342.57812 174.375 -343.39062 curveto
174.375 -344.74478 173.6927 -345.70312 172.32812 -346.26562 curveto
175.70312 -351.0 lineto
173.95312 -351.0 lineto
171.0625 -346.71875 lineto
169.73438 -346.71875 lineto
169.73438 -351.0 lineto
168.3125 -351.0 lineto
closepath
169.73438 -345.64062 moveto
170.1875 -345.64062 lineto
172.0 -345.64062 172.90625 -344.93228 172.90625 -343.51562 curveto
172.90625 -342.47397 172.14583 -341.95312 170.625 -341.95312 curveto
169.73438 -341.95312 lineto
169.73438 -345.64062 lineto
closepath
182.63379 -350.76562 moveto
181.73796 -351.03647 180.96712 -351.17188 180.32129 -351.17188 curveto
179.22754 -351.17188 178.33691 -350.80728 177.64941 -350.07812 curveto
176.96191 -349.34897 176.61816 -348.40625 176.61816 -347.25 curveto
176.61816 -346.125 176.92024 -345.20312 177.52441 -344.48438 curveto
178.12859 -343.76562 178.90462 -343.40625 179.85254 -343.40625 curveto
180.75879 -343.40625 181.45671 -343.72397 181.94629 -344.35938 curveto
182.43587 -344.99478 182.68066 -345.90103 182.68066 -347.07812 curveto
182.66504 -347.5 lineto
177.99316 -347.5 lineto
178.18066 -349.2604 179.04004 -350.14062 180.57129 -350.14062 curveto
181.13379 -350.14062 181.82129 -349.9896 182.63379 -349.6875 curveto
182.63379 -350.76562 lineto
closepath
178.04004 -346.48438 moveto
181.32129 -346.48438 lineto
181.32129 -345.10938 180.80566 -344.42188 179.77441 -344.42188 curveto
178.74316 -344.42188 178.16504 -345.10938 178.04004 -346.48438 curveto
closepath
186.96484 -351.17188 moveto
186.35027 -351.17188 185.60547 -351.02603 184.73047 -350.73438 curveto
184.73047 -349.5 lineto
185.60547 -349.9375 186.3711 -350.15625 187.02734 -350.15625 curveto
187.41277 -350.15625 187.73308 -350.0521 187.98828 -349.84375 curveto
188.24348 -349.6354 188.3711 -349.375 188.3711 -349.0625 curveto
188.3711 -348.60416 188.01172 -348.22397 187.29297 -347.92188 curveto
186.51172 -347.57812 lineto
185.34505 -347.09897 184.76172 -346.40625 184.76172 -345.5 curveto
184.76172 -344.85416 184.99089 -344.34375 185.44922 -343.96875 curveto
185.90755 -343.59375 186.53777 -343.40625 187.33984 -343.40625 curveto
187.75652 -343.40625 188.26692 -343.46353 188.8711 -343.57812 curveto
189.15234 -343.64062 lineto
189.15234 -344.76562 lineto
188.40234 -344.53647 187.8086 -344.42188 187.3711 -344.42188 curveto
186.4961 -344.42188 186.0586 -344.73438 186.0586 -345.35938 curveto
186.0586 -345.76562 186.38672 -346.10938 187.04297 -346.39062 curveto
187.69922 -346.67188 lineto
188.42839 -346.97397 188.94661 -347.29688 189.2539 -347.64062 curveto
189.5612 -347.98438 189.71484 -348.41666 189.71484 -348.9375 curveto
189.71484 -349.58334 189.45703 -350.1172 188.9414 -350.53906 curveto
188.42578 -350.96094 187.76692 -351.17188 186.96484 -351.17188 curveto
closepath
196.77344 -351.0 moveto
196.77344 -349.60938 lineto
196.06511 -350.65103 195.20052 -351.17188 194.17969 -351.17188 curveto
193.52344 -351.17188 193.0052 -350.96875 192.625 -350.5625 curveto
192.2448 -350.15625 192.05469 -349.60416 192.05469 -348.90625 curveto
192.05469 -343.57812 lineto
193.39844 -343.57812 lineto
193.39844 -348.46875 lineto
193.39844 -349.02084 193.47917 -349.41666 193.64062 -349.65625 curveto
193.80208 -349.89584 194.07552 -350.01562 194.46094 -350.01562 curveto
195.27344 -350.01562 196.04427 -349.47397 196.77344 -348.39062 curveto
196.77344 -343.57812 lineto
198.11719 -343.57812 lineto
198.11719 -351.0 lineto
196.77344 -351.0 lineto
closepath
200.82129 -351.0 moveto
200.82129 -340.20312 lineto
202.16504 -340.20312 lineto
202.16504 -351.0 lineto
200.82129 -351.0 lineto
closepath
207.10254 -351.17188 moveto
206.41504 -351.17188 205.88118 -350.97656 205.50098 -350.58594 curveto
205.12077 -350.1953 204.93066 -349.65103 204.93066 -348.95312 curveto
204.93066 -344.59375 lineto
203.99316 -344.59375 lineto
203.99316 -343.57812 lineto
204.93066 -343.57812 lineto
204.93066 -342.23438 lineto
206.27441 -342.09375 lineto
206.27441 -343.57812 lineto
208.21191 -343.57812 lineto
208.21191 -344.59375 lineto
206.27441 -344.59375 lineto
206.27441 -348.70312 lineto
206.27441 -349.67188 206.69109 -350.15625 207.52441 -350.15625 curveto
207.70149 -350.15625 207.92024 -350.125 208.18066 -350.0625 curveto
208.18066 -351.0 lineto
207.76399 -351.1146 207.40462 -351.17188 207.10254 -351.17188 curveto
closepath
212.07324 -351.17188 moveto
211.45866 -351.17188 210.71387 -351.02603 209.83887 -350.73438 curveto
209.83887 -349.5 lineto
210.71387 -349.9375 211.47949 -350.15625 212.13574 -350.15625 curveto
212.52116 -350.15625 212.84148 -350.0521 213.09668 -349.84375 curveto
213.35188 -349.6354 213.47949 -349.375 213.47949 -349.0625 curveto
213.47949 -348.60416 213.12012 -348.22397 212.40137 -347.92188 curveto
211.62012 -347.57812 lineto
210.45345 -347.09897 209.87012 -346.40625 209.87012 -345.5 curveto
209.87012 -344.85416 210.09929 -344.34375 210.55762 -343.96875 curveto
211.01595 -343.59375 211.64616 -343.40625 212.44824 -343.40625 curveto
212.86491 -343.40625 213.37532 -343.46353 213.97949 -343.57812 curveto
214.26074 -343.64062 lineto
214.26074 -344.76562 lineto
213.51074 -344.53647 212.91699 -344.42188 212.47949 -344.42188 curveto
211.60449 -344.42188 211.16699 -344.73438 211.16699 -345.35938 curveto
211.16699 -345.76562 211.49512 -346.10938 212.15137 -346.39062 curveto
212.80762 -346.67188 lineto
213.53679 -346.97397 214.05501 -347.29688 214.3623 -347.64062 curveto
214.6696 -347.98438 214.82324 -348.41666 214.82324 -348.9375 curveto
214.82324 -349.58334 214.56543 -350.1172 214.0498 -350.53906 curveto
213.53418 -350.96094 212.87532 -351.17188 212.07324 -351.17188 curveto
closepath
fill
newpath
1.0 setlinewidth
10.0 setmiterlimit
0 setlinejoin
2 setlinecap
[ ] 0 setdash
grestore
grestore
showpage

%%EOF